<!--This work is licensed under a Creative Commons Attribution-ShareAlike 4.0 International License (CC BY-SA) with Design Exception 1.0-->
<eagle version="7.1.0">
<drawing>
<settings>
<setting alwaysvectorfont="no"/>
<setting verticaltext="up"/>
</settings>
<grid distance="0.1" unitdist="inch" unit="inch" style="lines" multiple="1" display="no" altdistance="0.01" altunitdist="inch" altunit="inch"/>
<layers>
<layer number="1" name="Top" color="4" fill="1" visible="yes" active="yes"/>
<layer number="16" name="Bottom" color="1" fill="1" visible="yes" active="yes"/>
<layer number="17" name="Pads" color="2" fill="1" visible="yes" active="yes"/>
<layer number="18" name="Vias" color="2" fill="1" visible="yes" active="yes"/>
<layer number="19" name="Unrouted" color="6" fill="1" visible="yes" active="yes"/>
<layer number="20" name="Dimension" color="15" fill="1" visible="yes" active="yes"/>
<layer number="21" name="tPlace" color="7" fill="1" visible="yes" active="yes"/>
<layer number="22" name="bPlace" color="7" fill="1" visible="yes" active="yes"/>
<layer number="23" name="tOrigins" color="15" fill="1" visible="yes" active="yes"/>
<layer number="24" name="bOrigins" color="15" fill="1" visible="yes" active="yes"/>
<layer number="25" name="tNames" color="7" fill="1" visible="yes" active="yes"/>
<layer number="26" name="bNames" color="7" fill="1" visible="yes" active="yes"/>
<layer number="27" name="tValues" color="7" fill="1" visible="yes" active="yes"/>
<layer number="28" name="bValues" color="7" fill="1" visible="yes" active="yes"/>
<layer number="29" name="tStop" color="7" fill="3" visible="yes" active="yes"/>
<layer number="30" name="bStop" color="7" fill="6" visible="no" active="yes"/>
<layer number="31" name="tCream" color="7" fill="4" visible="yes" active="yes"/>
<layer number="32" name="bCream" color="7" fill="5" visible="no" active="yes"/>
<layer number="33" name="tFinish" color="6" fill="3" visible="no" active="yes"/>
<layer number="34" name="bFinish" color="6" fill="6" visible="no" active="yes"/>
<layer number="35" name="tGlue" color="7" fill="4" visible="no" active="yes"/>
<layer number="36" name="bGlue" color="7" fill="5" visible="no" active="yes"/>
<layer number="37" name="tTest" color="7" fill="1" visible="no" active="yes"/>
<layer number="38" name="bTest" color="7" fill="1" visible="no" active="yes"/>
<layer number="39" name="tKeepout" color="4" fill="11" visible="yes" active="yes"/>
<layer number="40" name="bKeepout" color="1" fill="11" visible="yes" active="yes"/>
<layer number="41" name="tRestrict" color="4" fill="10" visible="yes" active="yes"/>
<layer number="42" name="bRestrict" color="1" fill="10" visible="yes" active="yes"/>
<layer number="43" name="vRestrict" color="2" fill="10" visible="yes" active="yes"/>
<layer number="44" name="Drills" color="7" fill="1" visible="no" active="yes"/>
<layer number="45" name="Holes" color="7" fill="1" visible="no" active="yes"/>
<layer number="46" name="Milling" color="3" fill="1" visible="no" active="yes"/>
<layer number="47" name="Measures" color="7" fill="1" visible="no" active="yes"/>
<layer number="48" name="Document" color="7" fill="1" visible="yes" active="yes"/>
<layer number="49" name="Reference" color="7" fill="1" visible="yes" active="yes"/>
<layer number="51" name="tDocu" color="7" fill="1" visible="yes" active="yes"/>
<layer number="52" name="bDocu" color="7" fill="1" visible="yes" active="yes"/>
<layer number="90" name="Modules" color="5" fill="1" visible="yes" active="yes"/>
<layer number="91" name="Nets" color="2" fill="1" visible="yes" active="yes"/>
<layer number="92" name="Busses" color="1" fill="1" visible="yes" active="yes"/>
<layer number="93" name="Pins" color="2" fill="1" visible="yes" active="yes"/>
<layer number="94" name="Symbols" color="4" fill="1" visible="yes" active="yes"/>
<layer number="95" name="Names" color="7" fill="1" visible="yes" active="yes"/>
<layer number="96" name="Values" color="7" fill="1" visible="yes" active="yes"/>
<layer number="97" name="Info" color="7" fill="1" visible="yes" active="yes"/>
<layer number="98" name="Guide" color="6" fill="1" visible="yes" active="yes"/>
</layers>
<library>
<packages>
<package name="DIP794W45P254L1060H508Q8">
<wire x1="-3.3" y1="5.3" x2="3.3" y2="5.3" width="0.127" layer="51"/>
<wire x1="3.3" y1="5.3" x2="3.3" y2="-5.3" width="0.127" layer="51"/>
<wire x1="3.3" y1="-5.3" x2="-3.3" y2="-5.3" width="0.127" layer="51"/>
<wire x1="-3.3" y1="-5.3" x2="-3.3" y2="5.3" width="0.127" layer="51"/>
<wire x1="4.8" y1="5.55" x2="4.8" y2="-5.55" width="0.05" layer="39"/>
<wire x1="4.8" y1="-5.55" x2="-4.8" y2="-5.55" width="0.05" layer="39"/>
<wire x1="-4.8" y1="-5.55" x2="-4.8" y2="5.55" width="0.05" layer="39"/>
<wire x1="-4.8" y1="5.55" x2="4.8" y2="5.55" width="0.05" layer="39"/>
<wire x1="3.3" y1="4.5" x2="3.3" y2="5.3" width="0.127" layer="21"/>
<wire x1="3.3" y1="5.3" x2="-3.3" y2="5.3" width="0.127" layer="21"/>
<wire x1="-3.3" y1="5.3" x2="-3.3" y2="4.7" width="0.127" layer="21"/>
<wire x1="-3.3" y1="-4.6" x2="-3.3" y2="-5.3" width="0.127" layer="21"/>
<wire x1="-3.3" y1="-5.3" x2="3.3" y2="-5.3" width="0.127" layer="21"/>
<wire x1="3.3" y1="-5.3" x2="3.3" y2="-4.6" width="0.127" layer="21"/>
<text x="-3.30592" y="5.71022" size="1.27228" layer="25">&gt;NAME</text>
<text x="-3.30307" y="-6.90642" size="1.27118" layer="27">&gt;VALUE</text>
<circle x="-5.1" y="3.8" radius="0.1" width="0.2" layer="21"/>
<pad name="8" x="3.97" y="3.81" drill="0.76" rot="R270"/>
<pad name="7" x="3.97" y="1.27" drill="0.76" rot="R270"/>
<pad name="6" x="3.97" y="-1.27" drill="0.76" rot="R270"/>
<pad name="5" x="3.97" y="-3.81" drill="0.76" rot="R270"/>
<pad name="1" x="-3.97" y="3.81" drill="0.76" shape="square" rot="R270"/>
<pad name="2" x="-3.97" y="1.27" drill="0.76" rot="R270"/>
<pad name="3" x="-3.97" y="-1.27" drill="0.76" rot="R270"/>
<pad name="4" x="-3.97" y="-3.81" drill="0.76" rot="R270"/>
</package>
</packages>
<symbols>
<symbol name="NE555">
<wire x1="-10.16" y1="-12.7" x2="-10.16" y2="12.7" width="0.254" layer="94"/>
<wire x1="-10.16" y1="12.7" x2="10.16" y2="12.7" width="0.254" layer="94"/>
<wire x1="10.16" y1="12.7" x2="10.16" y2="-12.7" width="0.254" layer="94"/>
<wire x1="10.16" y1="-12.7" x2="-10.16" y2="-12.7" width="0.254" layer="94"/>
<text x="-10.1637" y="13.3398" size="1.27046" layer="95">&gt;NAME</text>
<text x="-10.1798" y="-15.2698" size="1.27248" layer="96">&gt;VALUE</text>
<pin name="GND" x="15.24" y="-10.16" length="middle" direction="pwr" rot="R180"/>
<pin name="TRIG" x="-15.24" y="5.08" length="middle" direction="in"/>
<pin name="OUT" x="15.24" y="2.54" length="middle" direction="out" rot="R180"/>
<pin name="RESET" x="-15.24" y="0" length="middle" direction="in"/>
<pin name="VCC" x="15.24" y="10.16" length="middle" direction="pwr" rot="R180"/>
<pin name="DISCH" x="15.24" y="5.08" length="middle" direction="out" rot="R180"/>
<pin name="THRES" x="-15.24" y="2.54" length="middle" direction="in"/>
<pin name="CONT" x="-15.24" y="-5.08" length="middle"/>
</symbol>
</symbols>
<devicesets>
<deviceset name="NE555" prefix="U">
<description>NA555, NE555, SA555, SE555  are precision timing circuits capable of
producing accurate time delays or oscillation. In the
time-delay or mono-stable mode of operation, the
timed interval is controlled by a single external
resistor and capacitor network. In the a-stable mode
Up to 200 mA of operation, the frequency and duty cycle can be
controlled independently with two external resistors
, and a single external capacitor.</description>
<gates>
<gate name="G$1" symbol="NE555" x="0" y="0"/>
</gates>
<devices>
<device name="" package="DIP794W45P254L1060H508Q8">
<connects>
<connect gate="G$1" pin="CONT" pad="5"/>
<connect gate="G$1" pin="DISCH" pad="7"/>
<connect gate="G$1" pin="GND" pad="1"/>
<connect gate="G$1" pin="OUT" pad="3"/>
<connect gate="G$1" pin="RESET" pad="4"/>
<connect gate="G$1" pin="THRES" pad="6"/>
<connect gate="G$1" pin="TRIG" pad="2"/>
<connect gate="G$1" pin="VCC" pad="8"/>
</connects>
<technologies>
<technology name="">
<attribute name="MF" value="Texas Instruments"/>
<attribute name="Price" value="None"/>
<attribute name="MP" value="NE555"/>
<attribute name="Availability" value="Unavailable"/>
<attribute name="Package" value="SOIC-8 Conrad"/>
<attribute name="Description" value="
"/>
</technology>
</technologies>
</device>
</devices>
</deviceset>
</devicesets>
</library>
</drawing>
</eagle>
