<?xml version="1.0" encoding="UTF-8" standalone="no"?>
<!-- Created with Inkscape (http://www.inkscape.org/) -->

<svg
   xmlns:dc="http://purl.org/dc/elements/1.1/"
   xmlns:cc="http://creativecommons.org/ns#"
   xmlns:rdf="http://www.w3.org/1999/02/22-rdf-syntax-ns#"
   xmlns:svg="http://www.w3.org/2000/svg"
   xmlns="http://www.w3.org/2000/svg"
   xmlns:sodipodi="http://sodipodi.sourceforge.net/DTD/sodipodi-0.dtd"
   xmlns:inkscape="http://www.inkscape.org/namespaces/inkscape"
   width="244.00168mm"
   height="190.74144mm"
   viewBox="0 0 244.00168 190.74144"
   version="1.1"
   id="svg8"
   inkscape:version="0.92.3 (2405546, 2018-03-11)"
   sodipodi:docname="glue_1.svg">
  <defs
     id="defs2" />
  <sodipodi:namedview
     id="base"
     pagecolor="#ffffff"
     bordercolor="#666666"
     borderopacity="1.0"
     inkscape:pageopacity="0.0"
     inkscape:pageshadow="2"
     inkscape:zoom="0.50387931"
     inkscape:cx="85.362131"
     inkscape:cy="307.85544"
     inkscape:document-units="mm"
     inkscape:current-layer="layer1"
     showgrid="false"
     inkscape:window-width="1920"
     inkscape:window-height="1016"
     inkscape:window-x="0"
     inkscape:window-y="27"
     inkscape:window-maximized="1"
     fit-margin-top="0"
     fit-margin-left="0"
     fit-margin-right="0"
     fit-margin-bottom="0" />
  <metadata
     id="metadata5">
    <rdf:RDF>
      <cc:Work
         rdf:about="">
        <dc:format>image/svg+xml</dc:format>
        <dc:type
           rdf:resource="http://purl.org/dc/dcmitype/StillImage" />
        <dc:title></dc:title>
      </cc:Work>
    </rdf:RDF>
  </metadata>
  <g
     inkscape:label="Layer 1"
     inkscape:groupmode="layer"
     id="layer1"
     transform="translate(-28.907531,270.66903)">
    <path
       sodipodi:type="inkscape:offset"
       inkscape:radius="15.186935"
       inkscape:original="M 175.43555 0.00390625 C 169.33625 0.00390625 164.37109 4.9711004 164.37109 11.070312 L 164.37109 263.44922 C 164.37109 269.54851 169.33626 274.52148 175.43555 274.52148 L 351.46484 274.52148 A 1.8899528 1.8899528 0 0 0 353.37695 272.56641 A 1.8899528 1.8899528 0 0 0 353.39062 272.34375 L 353.39062 3.296875 A 1.8899528 1.8899528 0 0 0 353.25 2.5507812 A 1.8899528 1.8899528 0 0 0 351.45703 0.00390625 L 175.43555 0.00390625 z M 359.82031 0.00390625 A 1.8899528 1.8899528 0 0 0 358.18945 2.5 A 1.8899528 1.8899528 0 0 0 358.02734 3.296875 L 358.02734 272.01953 A 1.8899528 1.8899528 0 0 0 358.57227 273.69531 A 1.8899528 1.8899528 0 0 0 358.58008 273.70898 A 1.8899528 1.8899528 0 0 0 358.60938 273.73242 A 1.8899528 1.8899528 0 0 0 360.22656 274.23438 L 713.29492 274.52148 C 716.34579 274.52348 719.65779 273.38229 722.4043 271.50977 C 725.1508 269.63739 727.46094 266.88303 727.46094 263.44922 L 727.46094 11.070312 C 727.46094 4.9711004 722.49378 0.00390625 716.39453 0.00390625 L 360.00586 0.00390625 A 1.8899528 1.8899528 0 0 0 359.82031 0.00390625 z M 727.15039 391.05273 A 1.8899528 1.8899528 0 0 0 726.18359 391.31836 C 726.18359 391.31836 719.2219 395.46449 712.23242 400.33789 C 708.73768 402.77448 705.23859 405.38674 702.53906 407.81641 C 701.18928 409.03141 700.03765 410.1998 699.16602 411.33789 C 698.4803 412.2333 697.89983 413.1024 697.68164 414.15039 L 340.43555 414.15039 C 339.51089 407.6654 333.92602 402.64288 327.19336 402.64258 A 1.8899528 1.8899528 0 0 0 327.18555 402.64258 C 321.68894 402.64658 317.00248 406.10274 314.97461 411.05664 L 278.56836 394.94922 A 1.8899528 1.8899528 0 0 0 277.83789 394.78711 A 1.8899528 1.8899528 0 0 0 275.91016 396.67773 L 275.91016 414.15039 L 171.21289 414.15039 A 5.209581 5.209581 0 0 0 166.47461 411.07227 A 5.209581 5.209581 0 0 0 161.72656 414.15039 L 115.08203 414.15039 A 1.8899528 1.8899528 0 0 0 114.25391 414.32031 C 113.96432 413.61532 113.52901 412.97867 113.0293 412.32617 C 112.15765 411.18797 111.00602 410.02743 109.65625 408.8125 C 106.95671 406.38272 103.44981 403.76475 99.955078 401.32812 C 92.965605 396.45474 86.003906 392.31445 86.003906 392.31445 A 1.8899528 1.8899528 0 0 0 85.037109 392.04102 L 1.8867188 392.04102 A 1.8899528 1.8899528 0 0 0 -0.001953125 393.93164 L -0.001953125 438.14062 A 1.8899528 1.8899528 0 0 0 1.8867188 440.03125 L 85.037109 440.03125 A 1.8899528 1.8899528 0 0 0 86.003906 439.76562 C 86.003906 439.76562 92.965598 435.61693 99.955078 430.74414 C 103.44982 428.30774 106.9567 425.69721 109.65625 423.26758 C 111.00603 422.0528 112.15764 420.8843 113.0293 419.74609 C 113.52861 419.09413 113.9643 418.45426 114.25391 417.75195 A 1.8899528 1.8899528 0 0 0 115.08203 417.92969 L 161.53516 417.92969 A 5.209581 5.209581 0 0 0 164.58398 421.125 L 164.58398 500.16406 A 1.8899528 1.8899528 0 0 0 166.47461 502.05273 L 441.9375 502.05273 A 5.209581 5.209581 0 0 0 444.81641 504.54102 L 444.81641 550.27148 L 340.43555 550.27148 C 339.51089 543.78638 333.92602 538.76386 327.19336 538.76367 C 321.69675 538.76667 317.00248 542.22571 314.97461 547.17969 L 278.56836 531.07227 A 1.8899528 1.8899528 0 0 0 277.83789 530.91016 A 1.8899528 1.8899528 0 0 0 275.91016 532.79883 L 275.91016 550.27148 L 171.2207 550.27148 A 5.209581 5.209581 0 0 0 166.47461 547.19336 A 5.209581 5.209581 0 0 0 161.72656 550.27148 L 115.08203 550.27148 A 1.8899528 1.8899528 0 0 0 114.25391 550.44922 C 113.96432 549.7443 113.52901 549.10183 113.0293 548.44922 C 112.15765 547.31113 111.00602 546.15044 109.65625 544.93555 C 106.95671 542.50573 103.44981 539.89362 99.955078 537.45703 C 92.965605 532.58371 86.003906 528.43555 86.003906 528.43555 A 1.8899528 1.8899528 0 0 0 85.037109 528.16992 L 1.8867188 528.16992 A 1.8899528 1.8899528 0 0 0 -0.001953125 530.06055 L -0.001953125 574.26367 A 1.8899528 1.8899528 0 0 0 1.8867188 576.15234 L 85.037109 576.15234 A 1.8899528 1.8899528 0 0 0 86.003906 575.88672 C 86.003906 575.88672 92.965598 571.74002 99.955078 566.86719 C 103.44982 564.43079 106.9567 561.81827 109.65625 559.38867 C 111.00603 558.17374 112.15764 557.00528 113.0293 555.86719 C 113.52846 555.21533 113.9643 554.57701 114.25391 553.875 A 1.8899528 1.8899528 0 0 0 115.08203 554.05078 L 161.53516 554.05078 A 5.209581 5.209581 0 0 0 164.58398 557.25586 L 164.58398 672.14062 A 1.8899528 1.8899528 0 0 0 166.47461 674.0293 L 515.68164 674.0293 C 513.861 678.8152 511.66891 683.40226 509.14062 687.69336 A 1.8899528 1.8899528 0 0 0 510.79492 690.54297 C 510.79492 690.54297 568.20422 689.86807 593.19922 644.70117 L 698.00781 644.70117 C 698.29657 645.33727 698.70703 645.92609 699.16602 646.52539 C 700.03769 647.66349 701.18928 648.82426 702.53906 650.03906 C 705.23863 652.46866 708.73768 655.08704 712.23242 657.52344 C 719.2219 662.39634 726.18359 666.53711 726.18359 666.53711 A 1.8899528 1.8899528 0 0 0 727.15039 666.81055 L 889.94336 666.81055 A 1.8899528 1.8899528 0 0 0 891.83398 664.91992 L 891.83398 620.71094 A 1.8899528 1.8899528 0 0 0 889.94336 618.82031 L 727.15039 618.82031 A 1.8899528 1.8899528 0 0 0 726.18359 619.08594 C 726.18359 619.08594 719.2219 623.2341 712.23242 628.10742 C 708.73768 630.54388 705.23859 633.162 702.53906 635.5918 C 701.18928 636.8067 700.03765 637.96717 699.16602 639.10547 C 698.70971 639.70117 698.3022 640.28807 698.01367 640.92188 L 592.27539 640.92188 C 566.82001 597.36157 510.79492 596.70508 510.79492 596.70508 A 1.8899528 1.8899528 0 0 0 509.14062 599.54688 C 511.07855 602.83596 512.82417 606.3045 514.35352 609.89648 L 448.5957 609.89648 L 448.5957 554.05078 L 517.66016 554.05078 C 515.55001 560.93916 512.67098 567.50411 509.14062 573.49609 A 1.8899528 1.8899528 0 0 0 510.79492 576.3457 C 510.79492 576.3457 567.51154 575.67559 592.74219 531.31641 L 698.00781 531.31641 C 698.29657 531.95299 698.70797 532.54056 699.16602 533.13867 C 700.03769 534.27676 701.18928 535.43757 702.53906 536.65234 C 705.23863 539.08205 708.73768 541.69446 712.23242 544.13086 C 719.2219 549.00365 726.18359 553.15043 726.18359 553.15039 A 1.8899528 1.8899528 0 0 0 727.15039 553.41602 L 889.94336 553.41602 A 1.8899528 1.8899528 0 0 0 891.83398 551.52734 L 891.83398 507.32422 A 1.8899528 1.8899528 0 0 0 889.94336 505.43359 L 727.15039 505.43359 A 1.8899528 1.8899528 0 0 0 726.18359 505.70117 C 726.18359 505.70117 719.2219 509.84742 712.23242 514.7207 C 708.73768 517.15729 705.23859 519.7694 702.53906 522.19922 C 701.18928 523.41411 700.03765 524.5748 699.16602 525.71289 C 698.70797 526.311 698.29649 526.89853 698.00781 527.53516 L 592.74219 527.53516 C 567.51195 483.17454 510.79492 482.50586 510.79492 482.50586 A 1.8899528 1.8899528 0 0 0 509.14062 485.35547 C 511.53814 489.42481 513.63679 493.75501 515.40039 498.27344 L 451.57812 498.27344 A 5.209581 5.209581 0 0 0 446.55078 494.42773 A 5.209581 5.209581 0 0 0 441.53125 498.27344 L 168.36328 498.27344 L 168.36328 421.14062 A 5.209581 5.209581 0 0 0 171.41211 417.92969 L 275.91016 417.92969 L 275.91016 435.39453 A 1.8899528 1.8899528 0 0 0 278.56836 437.12305 L 314.98242 421.00781 C 317.00681 425.95571 321.69328 429.42311 327.19336 429.42969 C 333.92481 429.42942 339.50922 424.41279 340.43555 417.92969 L 698.2207 417.92969 A 1.8899528 1.8899528 0 0 0 698.55273 417.90039 C 698.74171 418.1865 698.94813 418.47134 699.16602 418.75586 C 700.03769 419.89403 701.18928 421.05475 702.53906 422.26953 C 705.23863 424.69912 708.73768 427.31165 712.23242 429.74805 C 719.2219 434.62084 726.18359 438.76953 726.18359 438.76953 A 1.8899528 1.8899528 0 0 0 727.15039 439.03516 L 889.94336 439.03516 A 1.8899528 1.8899528 0 0 0 891.83398 437.13672 L 891.83398 392.94141 A 1.8899528 1.8899528 0 0 0 889.94336 391.05273 L 727.15039 391.05273 z M 727.70508 394.83203 L 888.05469 394.83203 L 888.05469 435.25586 L 727.70508 435.25586 C 727.30993 435.01964 721.03694 431.28505 714.39453 426.6543 C 710.97032 424.26707 707.5541 421.70561 705.06445 419.46484 C 703.81963 418.34452 702.8118 417.29905 702.16992 416.46094 C 701.52808 415.62283 701.36523 414.96859 701.36523 415.04297 C 701.36523 415.11747 701.52816 414.47088 702.16992 413.63281 C 702.8118 412.79459 703.81963 411.74942 705.06445 410.62891 C 707.5541 408.38814 710.97032 405.82694 714.39453 403.43945 C 721.03701 398.80806 727.31004 395.06806 727.70508 394.83203 z M 3.7773438 395.82031 L 84.482422 395.82031 C 84.877341 396.05616 91.158239 399.79634 97.800781 404.42773 C 101.22499 406.81522 104.64119 409.37631 107.13086 411.61719 C 108.3757 412.73759 109.38351 413.78486 110.02539 414.62305 C 110.66727 415.46116 110.83008 416.11363 110.83008 416.03906 C 110.83008 415.96456 110.66726 416.61111 110.02539 417.44922 C 109.38352 418.28733 108.37569 419.33467 107.13086 420.45508 C 104.6412 422.69581 101.22499 425.25723 97.800781 427.64453 C 91.158246 432.2754 84.877333 436.01596 84.482422 436.25195 L 3.7773438 436.25195 L 3.7773438 395.82031 z M 279.69727 399.57812 L 314.22266 414.85938 A 1.8899528 1.8899528 0 0 0 313.79492 416.07617 C 313.79792 416.20581 313.80881 416.33115 313.81641 416.46094 A 1.8899528 1.8899528 0 0 0 313.89844 416.89648 A 1.8899528 1.8899528 0 0 0 313.88281 416.94727 A 1.8899528 1.8899528 0 0 0 313.875 417.35352 L 313.875 417.36133 L 279.68945 432.49414 L 279.69727 399.57812 z M 21.412109 401.17188 L 12.488281 430.33203 L 16.570312 430.33203 L 18.673828 422.73438 L 28.890625 422.73438 L 31.039062 430.33203 L 35.121094 430.33203 L 26.195312 401.17188 L 21.412109 401.17188 z M 47.189453 401.17188 L 40.626953 402.61914 L 40.626953 406.20703 L 47.234375 404.72266 L 47.234375 427.00977 L 41.099609 427.00977 L 41.099609 430.33203 L 57.193359 430.33203 L 57.193359 427.00977 L 51.138672 427.00977 L 51.138672 401.17188 L 47.189453 401.17188 z M 63.931641 401.17188 L 63.931641 415.81836 C 64.8431 415.33658 65.802085 414.98234 66.804688 414.74805 C 67.807294 414.50049 68.833983 414.37106 69.888672 414.37109 C 72.063147 414.37109 73.757812 414.9544 74.96875 416.11328 C 76.192708 417.27208 76.798828 418.8952 76.798828 420.97852 C 76.798828 423.08791 76.212237 424.71151 75.027344 425.85742 C 73.855467 427.00322 72.182293 427.57813 70.007812 427.57812 C 68.744794 427.57812 67.50586 427.41807 66.294922 427.10547 C 65.083984 426.78005 63.875652 426.29563 62.677734 425.64453 L 62.677734 429.64453 C 63.693361 430.06122 64.841143 430.37374 66.117188 430.58203 C 67.406248 430.79028 68.827472 430.90039 70.376953 430.90039 C 73.593097 430.90039 76.123696 430.01297 77.972656 428.24219 C 79.834633 426.47129 80.769531 424.0515 80.769531 420.97852 C 80.769531 417.93169 79.884115 415.51219 78.113281 413.72852 C 76.342448 411.94462 73.942708 411.05664 70.921875 411.05664 C 70.348955 411.05664 69.776041 411.10894 69.203125 411.21289 C 68.64323 411.30399 68.087239 411.45367 67.527344 411.66211 L 67.527344 404.49414 L 78.695312 404.49414 L 78.695312 401.17188 L 63.931641 401.17188 z M 739.81055 401.44531 A 1.4716026 1.4716026 0 0 0 739.95898 404.38477 L 865.08203 404.38477 A 1.46973 1.46973 0 0 0 865.08203 401.44531 L 739.95898 401.44531 A 1.468989 1.468989 0 0 0 739.81055 401.44531 z M 23.796875 404.65039 L 27.953125 419.56836 L 19.632812 419.56836 L 23.796875 404.65039 z M 764.23047 405.15234 C 761.68345 405.15234 759.78454 406.12776 758.53125 408.06836 C 757.28805 410.00896 756.66992 412.95242 756.66992 416.9043 C 756.66992 420.8663 757.28805 423.80984 758.53125 425.74023 C 759.77441 427.67074 761.67335 428.64062 764.23047 428.64062 C 766.78755 428.64062 768.69238 427.66521 769.93555 425.72461 C 771.18884 423.78401 771.81055 420.84612 771.81055 416.9043 C 771.81055 412.95242 771.18884 410.00896 769.93555 408.06836 C 768.69238 406.12776 766.78755 405.15234 764.23047 405.15234 z M 820.49414 405.15234 C 818.24029 405.15234 816.43284 405.76737 815.06836 406.99023 C 813.714 408.20316 813.03125 409.81844 813.03125 411.83984 C 813.03125 413.45691 813.51283 414.74684 814.46289 415.70703 C 815.41299 416.66726 816.93873 417.38827 819.04102 417.86328 L 820.67188 418.24023 C 822.13742 418.56376 823.1638 419.02284 823.75 419.61914 C 824.34633 420.21544 824.65039 421.07893 824.65039 422.21094 C 824.65039 423.45414 824.21846 424.42178 823.35938 425.11914 C 822.50028 425.80645 821.29639 426.15234 819.75 426.15234 C 818.69884 426.15234 817.65236 425.98035 816.61133 425.63672 C 815.58039 425.29316 814.48849 424.74952 813.32617 424.01172 L 813.32617 427.27539 C 814.40761 427.73018 815.48139 428.06472 816.55273 428.28711 C 817.62408 428.51955 818.68875 428.64062 819.75 428.64062 C 822.29699 428.64062 824.24001 428.07537 825.57422 426.94336 C 826.90835 425.81135 827.57422 424.16454 827.57422 422.01172 C 827.57422 420.18235 827.08942 418.73891 826.11914 417.67773 C 825.14886 416.61644 823.59903 415.84101 821.47656 415.3457 L 819.875 414.97656 C 818.36901 414.6228 817.33714 414.18769 816.78125 413.66211 C 816.23549 413.13645 815.96289 412.36778 815.96289 411.36719 C 815.96289 410.22509 816.37789 409.32529 817.2168 408.6582 C 818.05566 407.98099 819.19725 407.63867 820.64258 407.63867 C 821.59264 407.63867 822.53887 407.79461 823.46875 408.09766 C 824.40868 408.40115 825.3377 408.85093 826.26758 409.44727 L 826.26758 406.33984 C 825.20632 405.94564 824.20042 405.64708 823.24023 405.45508 C 822.28005 405.25287 821.36336 405.15234 820.49414 405.15234 z M 738.38672 405.56445 L 738.38672 428.19727 L 741.45703 428.19727 L 741.45703 418.63086 L 744.38672 418.63086 C 745.38735 418.63086 746.19204 418.87253 746.80859 419.34766 C 747.4352 419.81258 748.14172 420.85709 748.91992 422.48438 L 751.62109 428.19727 L 754.90625 428.19727 L 751.82812 422.01172 C 750.99936 420.33395 750.3098 419.21605 749.75391 418.66016 C 749.19801 418.09413 748.52665 417.71186 747.73828 417.50977 C 749.21396 417.29736 750.35543 416.72114 751.16406 415.78125 C 751.98267 414.83115 752.38867 413.60918 752.38867 412.11328 C 752.38867 409.99081 751.72834 408.36996 750.4043 407.24805 C 749.08025 406.12617 747.17582 405.56445 744.68945 405.56445 L 738.38672 405.56445 z M 774.875 405.56445 L 774.875 428.19727 L 777.69531 428.19727 L 777.69531 408.20117 L 781.74023 420.13672 L 784.06445 420.13672 L 788.0957 408.20117 L 788.0957 428.19727 L 790.92969 428.19727 L 790.92969 405.56445 L 786.81836 405.56445 L 782.87695 417.08789 L 778.9707 405.56445 L 774.875 405.56445 z M 832.59375 405.56445 L 832.59375 428.19727 L 846.30859 428.19727 L 846.30859 425.62109 L 835.65625 425.62109 L 835.65625 417.41992 L 845.57031 417.41992 L 845.57031 414.84375 L 835.65625 414.84375 L 835.65625 408.14062 L 846.02148 408.14062 L 846.02148 405.56445 L 832.59375 405.56445 z M 851.54297 405.56445 L 851.54297 428.19727 L 865.55469 428.19727 L 865.55469 425.62109 L 854.62109 425.62109 L 854.62109 405.56445 L 851.54297 405.56445 z M 327.19336 406.42188 C 332.52544 406.42199 336.8045 410.70123 336.80469 416.0332 C 336.80541 421.36544 332.52514 425.64911 327.19336 425.65039 C 322.62399 425.64639 318.70886 422.4501 317.78711 417.97461 A 1.8899528 1.8899528 0 0 0 317.69141 417.65625 A 1.8899528 1.8899528 0 0 0 317.69141 417.54492 A 1.8899528 1.8899528 0 0 0 317.67773 417.33203 C 317.66263 417.21298 317.64561 417.096 317.63281 416.97656 A 1.8899528 1.8899528 0 0 0 317.60352 416.79297 A 1.8899528 1.8899528 0 0 0 317.56641 416.63086 A 1.8899528 1.8899528 0 0 0 317.58789 416.27539 C 317.58389 416.18239 317.57792 416.08907 317.57422 415.99609 A 1.8899528 1.8899528 0 0 0 317.22656 414.96289 A 1.8899528 1.8899528 0 0 0 317.81055 413.97266 C 318.78189 409.55616 322.67153 406.42558 327.19336 406.42188 z M 764.23047 407.63867 C 765.78695 407.63867 766.90489 408.35423 767.58203 409.7793 C 768.26934 411.20441 768.61523 413.57911 768.61523 416.9043 C 768.61523 420.2296 768.26934 422.60224 767.58203 424.02734 C 766.90489 425.44232 765.78695 426.15234 764.23047 426.15234 C 762.68408 426.15234 761.56621 425.43683 760.87891 424.01172 C 760.20173 422.58661 759.86719 420.21951 759.86719 416.9043 C 759.86719 413.57911 760.20158 411.20441 760.87891 409.7793 C 761.56621 408.35423 762.68408 407.63871 764.23047 407.63867 z M 741.45703 408.08203 L 744.68945 408.08203 C 746.14487 408.08203 747.25366 408.43357 748.01172 409.13086 C 748.77987 409.81817 749.16406 410.8095 749.16406 412.11328 C 749.16406 413.46771 748.80348 414.47582 748.08594 415.13281 C 747.36832 415.78981 746.27414 416.11328 744.80859 416.11328 L 741.45703 416.11328 L 741.45703 408.08203 z M 513.98438 486.57422 C 522.33485 487.01465 567.53454 491.00031 589.41211 529.42578 C 567.53447 567.85141 522.33485 571.83665 513.98438 572.27734 C 520.87546 559.48935 525.14498 544.66416 525.41016 529.45508 A 1.8899528 1.8899528 0 0 0 525.41016 529.38867 C 525.14483 514.18038 520.87517 499.36165 513.98438 486.57422 z M 451.15625 502.05273 L 516.77344 502.05273 C 519.74003 510.75574 521.46343 520.04681 521.63086 529.42578 C 521.50425 536.53428 520.48517 543.58463 518.70898 550.375 A 1.8899528 1.8899528 0 0 0 518.05078 550.27148 L 448.5957 550.27148 L 448.5957 504.41602 A 5.209581 5.209581 0 0 0 451.15625 502.05273 z M 727.70508 509.21484 L 888.05469 509.21484 L 888.05469 549.63672 L 727.70508 549.63672 C 727.31004 549.4005 721.03698 545.66009 714.39453 541.0293 C 710.97032 538.64207 707.5541 536.08835 705.06445 533.84766 C 703.81963 532.72725 702.8118 531.67405 702.16992 530.83594 C 701.52808 529.99783 701.36523 529.35121 701.36523 529.42578 C 701.36523 529.50028 701.52816 528.85382 702.16992 528.01562 C 702.8118 527.17751 703.81963 526.1322 705.06445 525.01172 C 707.5541 522.7708 710.97032 520.20976 714.39453 517.82227 C 721.03701 513.19087 727.31004 509.45084 727.70508 509.21484 z M 739.81055 515.82812 A 1.4708612 1.4708612 0 0 0 739.95898 518.76562 L 877.53516 518.76562 A 1.4690079 1.4690079 0 0 0 877.53516 515.82812 L 739.95898 515.82812 A 1.468989 1.468989 0 0 0 739.81055 515.82812 z M 766.15625 519.5332 C 763.27572 519.5332 761.0273 520.5706 759.41016 522.64258 C 757.80314 524.7045 757.00391 527.58598 757.00391 531.28516 C 757.00391 535.00455 757.79761 537.8936 759.39453 539.94531 C 761.00155 541.9971 763.2555 543.02344 766.15625 543.02344 C 767.07604 543.02344 767.94311 542.91711 768.76172 542.70508 C 769.58044 542.50287 770.38383 542.18982 771.16211 541.77539 L 771.16211 538.63867 C 770.42427 539.25519 769.62088 539.72545 768.76172 540.04883 C 767.9128 540.37236 767.04569 540.53516 766.15625 540.53516 C 764.16516 540.53516 762.67409 539.76854 761.68359 538.23242 C 760.69309 536.69612 760.19922 534.37798 760.19922 531.28516 C 760.19922 528.18228 760.69309 525.86052 761.68359 524.32422 C 762.67409 522.78792 764.16516 522.02148 766.15625 522.02148 C 767.0255 522.02148 767.88896 522.18635 768.74805 522.50977 C 769.60717 522.83329 770.41418 523.3016 771.16211 523.91797 L 771.16211 520.78125 C 770.38383 520.36686 769.5804 520.05358 768.76172 519.85156 C 767.94311 519.63915 767.07604 519.5332 766.15625 519.5332 z M 839.16992 519.5332 C 836.916 519.5332 835.11054 520.14811 833.74609 521.37109 C 832.39174 522.58391 831.71484 524.20125 831.71484 526.22266 C 831.71484 527.83988 832.19058 529.12965 833.14062 530.08984 C 834.09069 531.05007 835.61451 531.76316 837.7168 532.23828 L 839.35547 532.62109 C 840.82098 532.94462 841.84735 533.40566 842.43359 534.00195 C 843.02989 534.59825 843.32617 535.46174 843.32617 536.59375 C 843.32617 537.83695 842.89428 538.80455 842.03516 539.50195 C 841.17603 540.18926 839.97217 540.53516 838.42578 540.53516 C 837.37462 540.53516 836.32814 540.36317 835.28711 540.01953 C 834.25617 539.67597 833.16622 539.13233 832.00391 538.39453 L 832.00391 541.6582 C 833.08538 542.11311 834.15713 542.44558 835.22852 542.66797 C 836.29986 542.90041 837.36453 543.02344 838.42578 543.02344 C 840.97277 543.02344 842.91586 542.45037 844.25 541.31836 C 845.58414 540.18635 846.25 538.54735 846.25 536.39453 C 846.25 534.56516 845.7652 533.12184 844.79492 532.06055 C 843.82464 530.99937 842.28266 530.2159 840.16016 529.7207 L 838.55078 529.35938 C 837.04483 529.0056 836.01292 528.57054 835.45703 528.04492 C 834.91127 527.51953 834.63867 526.75063 834.63867 525.75 C 834.63867 524.6079 835.06149 523.70814 835.90039 523.04102 C 836.73929 522.36391 837.88088 522.02148 839.32617 522.02148 C 840.27627 522.02148 841.21665 522.17536 842.14648 522.47852 C 843.08645 522.78163 844.02129 523.23374 844.95117 523.83008 L 844.95117 520.71484 C 843.88992 520.32075 842.8762 520.02801 841.91602 519.83594 C 840.95583 519.63373 840.0391 519.5332 839.16992 519.5332 z M 743.70117 519.94727 L 736.77734 542.58008 L 739.94336 542.58008 L 741.58203 536.68164 L 749.50977 536.68164 L 751.17969 542.58008 L 754.3457 542.58008 L 747.42188 519.94727 L 743.70117 519.94727 z M 776.61719 519.94727 L 776.61719 522.52344 L 781.36328 522.52344 L 781.36328 540.00391 L 776.61719 540.00391 L 776.61719 542.58008 L 789.1875 542.58008 L 789.1875 540.00391 L 784.44141 540.00391 L 784.44141 522.52344 L 789.1875 522.52344 L 789.1875 519.94727 L 776.61719 519.94727 z M 799.73633 519.94727 L 792.8125 542.58008 L 795.97852 542.58008 L 797.61914 536.68164 L 805.54688 536.68164 L 807.21484 542.58008 L 810.38086 542.58008 L 803.44922 519.94727 L 799.73633 519.94727 z M 851.26953 519.94727 L 851.26953 542.58008 L 864.99219 542.58008 L 864.99219 540.00391 L 854.33398 540.00391 L 854.33398 531.80273 L 864.24805 531.80273 L 864.24805 529.22656 L 854.33398 529.22656 L 854.33398 522.52344 L 864.70508 522.52344 L 864.70508 519.94727 L 851.26953 519.94727 z M 870.21875 519.94727 L 870.21875 542.58008 L 884.23047 542.58008 L 884.23047 540.00391 L 873.29688 540.00391 L 873.29688 519.94727 L 870.21875 519.94727 z M 745.55469 522.64258 L 748.78711 534.22461 L 742.32812 534.22461 L 745.55469 522.64258 z M 801.58984 522.64258 L 804.81641 534.22461 L 798.35547 534.22461 L 801.58984 522.64258 z M 3.7773438 531.95117 L 84.490234 531.95117 C 84.892969 532.19193 91.162517 535.92241 97.800781 540.55078 C 101.22499 542.93831 104.64119 545.4992 107.13086 547.74023 C 108.3757 548.8606 109.38351 549.90603 110.02539 550.74414 C 110.66727 551.58233 110.83008 552.23672 110.83008 552.16211 C 110.83008 552.08761 110.66726 552.73416 110.02539 553.57227 C 109.38352 554.41034 108.37569 555.45573 107.13086 556.57617 C 104.6412 558.81683 101.22499 561.37845 97.800781 563.76562 C 91.158246 568.39653 84.877333 572.13702 84.482422 572.37305 L 3.7773438 572.37305 L 3.7773438 531.95117 z M 279.69727 535.70117 L 314.22266 550.98828 A 1.8899528 1.8899528 0 0 0 313.79492 552.16992 A 1.8899528 1.8899528 0 0 0 313.79492 552.19922 C 313.79792 552.32886 313.80881 552.45262 313.81641 552.58203 A 1.8899528 1.8899528 0 0 0 313.89062 553.01758 A 1.8899528 1.8899528 0 0 0 313.875 553.47656 L 313.875 553.48242 L 279.69727 568.61523 L 279.69727 535.70117 z M 20.925781 537.56055 L 12 566.71875 L 16.082031 566.71875 L 18.1875 559.12305 L 28.402344 559.12305 L 30.550781 566.71875 L 34.632812 566.71875 L 25.708984 537.56055 L 20.925781 537.56055 z M 46.703125 537.56055 L 40.140625 539 L 40.140625 542.5957 L 46.740234 541.11133 L 46.740234 563.39648 L 40.613281 563.39648 L 40.613281 566.71875 L 56.705078 566.71875 L 56.705078 563.39648 L 50.652344 563.39648 L 50.652344 537.56055 L 46.703125 537.56055 z M 73.107422 537.56055 L 61.392578 556.03711 L 61.392578 559.76562 L 73.757812 559.76562 L 73.757812 566.71875 L 77.677734 566.71875 L 77.677734 559.76562 L 81.568359 559.76562 L 81.568359 556.56055 L 77.677734 556.56055 L 77.677734 537.56055 L 73.107422 537.56055 z M 23.302734 541.03711 L 27.464844 555.95703 L 19.146484 555.95703 L 23.302734 541.03711 z M 73.757812 541.14844 L 73.757812 556.56055 L 64.552734 556.56055 L 73.757812 541.14844 z M 327.19336 542.54297 C 332.52544 542.54316 336.8045 546.82218 336.80469 552.1543 C 336.8045 557.48559 332.5245 561.77208 327.19336 561.77344 C 322.62297 561.76544 318.70758 558.57244 317.78711 554.0957 A 1.8899528 1.8899528 0 0 0 317.69141 553.77148 A 1.8899528 1.8899528 0 0 0 317.67773 553.45312 C 317.66263 553.33257 317.64561 553.21274 317.63281 553.0918 A 1.8899528 1.8899528 0 0 0 317.55859 552.75977 A 1.8899528 1.8899528 0 0 0 317.58203 552.61133 A 1.8899528 1.8899528 0 0 0 317.58203 552.39844 C 317.57803 552.30544 317.57822 552.21016 317.57422 552.11719 A 1.8899528 1.8899528 0 0 0 317.55859 551.93359 A 1.8899528 1.8899528 0 0 0 317.52148 551.74805 A 1.8899528 1.8899528 0 0 0 317.4707 551.56445 A 1.8899528 1.8899528 0 0 0 317.22656 551.0918 A 1.8899528 1.8899528 0 0 0 317.81055 550.0957 C 318.78189 545.6794 322.67153 542.54675 327.19336 542.54297 z M 171.41211 554.05078 L 275.91016 554.05078 L 275.91016 571.51758 A 1.8899528 1.8899528 0 0 0 278.56836 573.24414 L 314.98242 557.13086 C 317.00662 562.07815 321.68577 565.54574 327.18555 565.55273 A 1.8899528 1.8899528 0 0 0 327.19336 565.55273 C 333.92406 565.55243 339.50839 560.53297 340.43555 554.05078 L 444.81641 554.05078 L 444.81641 611.78516 A 1.8899528 1.8899528 0 0 0 446.70508 613.67578 L 515.4668 613.67578 A 1.8899528 1.8899528 0 0 0 515.84375 613.64648 C 519.38207 623.08839 521.44661 633.30055 521.63086 643.62305 C 521.46834 652.73505 519.83781 661.7626 517.02539 670.25 L 168.36328 670.25 L 168.36328 557.26367 A 5.209581 5.209581 0 0 0 171.41211 554.05078 z M 513.98438 600.77148 C 522.33485 601.21176 567.53454 605.19744 589.41211 643.62305 C 567.53447 682.04855 522.33486 686.02815 513.98438 686.46875 C 520.87546 673.68085 525.14498 658.86144 525.41016 643.65234 A 1.8899528 1.8899528 0 0 0 525.41016 643.58594 C 525.14483 628.37746 520.87516 613.55876 513.98438 600.77148 z M 727.70508 622.59961 L 888.05469 622.59961 L 888.05469 663.03125 L 727.70508 663.03125 C 727.31004 662.79533 721.03698 659.05463 714.39453 654.42383 C 710.97032 652.03653 707.5541 649.47312 705.06445 647.23242 C 703.81963 646.11202 702.8118 645.06661 702.16992 644.22852 C 701.52808 643.39042 701.36523 642.74376 701.36523 642.81836 C 701.36523 642.89286 701.52816 642.24044 702.16992 641.40234 C 702.8118 640.56414 703.81963 639.51688 705.06445 638.39648 C 707.5541 636.15549 710.97032 633.59453 714.39453 631.20703 C 721.03701 626.57575 727.31004 622.83575 727.70508 622.59961 z M 865.8418 629.21484 A 1.4670347 1.4670347 0 0 0 865.7832 629.2207 L 739.95898 629.2207 A 1.4670347 1.4670347 0 0 0 739.81055 629.2207 A 1.4676976 1.4676976 0 0 0 739.95898 632.15234 L 865.7832 632.15234 A 1.4693025 1.4693025 0 1 0 865.8418 629.21484 z M 820.49414 632.92773 C 818.24029 632.92773 816.43284 633.53491 815.06836 634.75781 C 813.714 635.97072 813.03125 637.58602 813.03125 639.60742 C 813.03125 641.22462 813.51283 642.51646 814.46289 643.47656 C 815.41299 644.43676 816.93873 645.15586 819.04102 645.63086 L 820.67188 646.00781 C 822.13742 646.3313 823.1638 646.79227 823.75 647.38867 C 824.34633 647.98497 824.65039 648.84652 824.65039 649.97852 C 824.65039 651.22152 824.21846 652.19127 823.35938 652.88867 C 822.50028 653.57587 821.29639 653.92186 819.75 653.92188 C 818.69884 653.92188 817.65236 653.74789 816.61133 653.4043 C 815.58039 653.06059 814.48849 652.51915 813.32617 651.78125 L 813.32617 655.04297 C 814.40761 655.49777 815.48139 655.8402 816.55273 656.0625 C 817.62408 656.29502 818.68875 656.4082 819.75 656.4082 C 822.29699 656.4082 824.24001 655.84294 825.57422 654.71094 C 826.90835 653.57894 827.57422 651.9321 827.57422 649.7793 C 827.57422 647.9499 827.08942 646.50856 826.11914 645.44727 C 825.14886 644.38606 823.59903 643.60848 821.47656 643.11328 L 819.875 642.75195 C 818.36901 642.39815 817.33714 641.95714 816.78125 641.43164 C 816.23549 640.90604 815.96289 640.14318 815.96289 639.14258 C 815.96289 638.00048 816.37789 637.09288 817.2168 636.42578 C 818.05566 635.74858 819.19725 635.4082 820.64258 635.4082 C 821.59264 635.4082 822.53887 635.56204 823.46875 635.86523 C 824.40868 636.16843 825.3377 636.6205 826.26758 637.2168 L 826.26758 634.10742 C 825.20632 633.71322 824.20042 633.42247 823.24023 633.23047 C 822.28005 633.02838 821.36336 632.92773 820.49414 632.92773 z M 738.38672 633.33398 L 738.38672 655.9668 L 741.45703 655.9668 L 741.45703 646.40625 L 744.38672 646.40625 C 745.38735 646.40625 746.19204 646.64025 746.80859 647.11523 C 747.4352 647.58014 748.14172 648.62465 748.91992 650.25195 L 751.62109 655.9668 L 754.90625 655.9668 L 751.82812 649.7793 C 750.99936 648.1015 750.3098 646.99145 749.75391 646.43555 C 749.19801 645.86955 748.52665 645.47954 747.73828 645.27734 C 749.21396 645.06512 750.35543 644.48883 751.16406 643.54883 C 751.98267 642.59873 752.38867 641.37676 752.38867 639.88086 C 752.38867 637.75836 751.72834 636.13753 750.4043 635.01562 C 749.08025 633.89373 747.17582 633.33398 744.68945 633.33398 L 738.38672 633.33398 z M 762.38477 633.33398 L 755.45312 655.9668 L 758.61914 655.9668 L 760.25781 650.06836 L 768.1875 650.06836 L 769.85547 655.9668 L 773.02148 655.9668 L 766.09766 633.33398 L 762.38477 633.33398 z M 774.875 633.33398 L 774.875 655.9668 L 777.69531 655.9668 L 777.69531 635.96875 L 781.74023 647.9043 L 784.06445 647.9043 L 788.0957 635.96875 L 788.0957 655.9668 L 790.92969 655.9668 L 790.92969 633.33398 L 786.81836 633.33398 L 782.87695 644.85547 L 778.9707 633.33398 L 774.875 633.33398 z M 832.59375 633.33398 L 832.59375 655.9668 L 846.30859 655.9668 L 846.30859 653.39062 L 835.65625 653.39062 L 835.65625 645.18945 L 845.57031 645.18945 L 845.57031 642.61133 L 835.65625 642.61133 L 835.65625 635.91016 L 846.02148 635.91016 L 846.02148 633.33398 L 832.59375 633.33398 z M 851.54297 633.33398 L 851.54297 655.9668 L 865.55469 655.9668 L 865.55469 653.39062 L 854.62109 653.39062 L 854.62109 633.33398 L 851.54297 633.33398 z M 741.45703 635.84961 L 744.68945 635.84961 C 746.14487 635.84961 747.25366 636.20103 748.01172 636.89844 C 748.77987 637.58574 749.16406 638.57706 749.16406 639.88086 C 749.16406 641.23526 748.80348 642.24339 748.08594 642.90039 C 747.36832 643.55729 746.27414 643.88281 744.80859 643.88281 L 741.45703 643.88281 L 741.45703 635.84961 z M 764.23047 636.03516 L 767.46289 647.61719 L 761.00391 647.61719 L 764.23047 636.03516 z "
       style="color:#000000;font-style:normal;font-variant:normal;font-weight:normal;font-stretch:normal;font-size:medium;line-height:normal;font-family:sans-serif;font-variant-ligatures:normal;font-variant-position:normal;font-variant-caps:normal;font-variant-numeric:normal;font-variant-alternates:normal;font-feature-settings:normal;text-indent:0;text-align:start;text-decoration:none;text-decoration-line:none;text-decoration-style:solid;text-decoration-color:#000000;letter-spacing:normal;word-spacing:normal;text-transform:none;writing-mode:lr-tb;direction:ltr;text-orientation:mixed;dominant-baseline:auto;baseline-shift:baseline;text-anchor:start;white-space:normal;shape-padding:0;clip-rule:nonzero;display:inline;overflow:visible;visibility:visible;opacity:1;isolation:auto;mix-blend-mode:normal;color-interpolation:sRGB;color-interpolation-filters:linearRGB;solid-color:#000000;solid-opacity:1;vector-effect:none;fill:#ffffff;fill-opacity:1;fill-rule:nonzero;stroke:none;stroke-width:3.77952766;stroke-linecap:round;stroke-linejoin:round;stroke-miterlimit:4;stroke-dasharray:none;stroke-dashoffset:0;stroke-opacity:1;color-rendering:auto;image-rendering:auto;shape-rendering:auto;text-rendering:auto;enable-background:accumulate"
       id="path1838"
       d="m 175.43555,-15.183594 c -14.34467,0 -26.25196,11.9125844 -26.25196,26.253906 V 263.44922 c 0,14.34131 11.8977,26.25976 26.25196,26.25976 h 176.02929 l -0.1875,-0.002 c 1.66028,0.0205 3.2674,-0.32492 4.82813,-0.82226 2.16307,0.50517 4.40098,0.6958 6.59375,0.33398 l -2.48438,0.20313 353.06836,0.2871 a 15.188454,15.188454 0 0 0 0.002,0 c 6.84522,0.004 12.605,-2.19455 17.67382,-5.65039 5.19914,-3.54442 11.68946,-10.36409 11.68946,-20.60937 V 11.070312 c 0,-14.3446416 -11.90922,-26.253906 -26.25391,-26.253906 H 360.00586 l 0.74609,0.01953 c -0.5584,-0.02745 -1.11933,-0.02745 -1.67773,0 a 15.188454,15.188454 0 0 0 -0.51563,0.0332 c -0.99808,0.08321 -1.94584,0.352599 -2.88867,0.630859 -1.40877,-0.429932 -2.86822,-0.698371 -4.38086,-0.681641 l 0.16797,-0.002 z M 348.08594,284.68359 c 0.0131,0.0126 0.0298,0.0207 0.043,0.0332 a 15.188454,15.188454 0 0 0 0.0332,0.0332 z m 379.06445,91.18164 c -26.89493,10.5512 -20.12432,9.0616 -34.77148,20.66407 -0.76647,0.68993 -1.53255,1.65672 -2.30079,2.43359 H 349.96875 c -5.23451,-6.95667 -13.4989,-11.5074 -22.77539,-11.50781 -0.007,0 -0.013,-1e-5 -0.0195,0 -6.01341,0.004 -11.58918,1.97047 -16.1836,5.23242 l -26.26171,-11.61914 c -2.07182,-0.9194 -4.32754,-1.42073 -6.59375,-1.46484 -9.0543,-0.17739 -17.41712,8.02562 -17.41211,17.08203 v 2.27734 h -83.81641 c -3.13589,-1.8985 -6.71754,-3.06733 -10.38672,-3.07812 a 15.188454,15.188454 0 0 0 -0.0606,0 c -3.68288,0.004 -7.28227,1.17227 -10.42968,3.07812 h -34.85157 c -0.45176,-0.42955 -0.91408,-1.03494 -1.36132,-1.4375 -3.52883,-3.1762 -7.40464,-6.02494 -11.17579,-8.6543 -7.52034,-5.24352 -14.71854,-9.51327 -14.794917,-9.55859 -2.614001,-1.57714 -5.656097,-2.43889 -8.708984,-2.45898 a 15.188454,15.188454 0 0 0 -0.09961,0 H 1.8867188 a 15.188454,15.188454 0 0 0 -0.00977,0 c -8.939589,0.006 -17.0695641,8.14439 -17.0664061,17.08398 v 44.20312 c 3.59e-4,8.93731 8.1287463,17.07207 17.0664061,17.07813 a 15.188454,15.188454 0 0 0 0.00977,0 H 85.03125 c 3.056358,10e-4 6.109537,-0.83793 8.736328,-2.40039 a 15.188454,15.188454 0 0 0 0.01172,-0.006 c 0,0 7.308323,-4.34372 14.861323,-9.60938 3.75969,-2.62111 7.63577,-5.46042 11.17579,-8.64648 0.45331,-0.40797 0.90515,-1.00628 1.35937,-1.43945 h 28.2207 v 67.04687 a 15.188454,15.188454 0 0 0 0,0.01 c 0.006,8.93765 8.14083,17.06605 17.07813,17.0664 h 104.76758 c -5.98553,2.74281 -10.51635,8.8994 -10.51953,15.55079 a 15.188454,15.188454 0 0 0 0,0.008 v 2.28515 h -83.80664 c -3.14507,-1.90432 -6.73985,-3.07282 -10.41993,-3.07812 a 15.188454,15.188454 0 0 0 -0.0371,0 c -3.68288,0.004 -7.28227,1.17227 -10.42968,3.07812 h -34.85352 c -0.45118,-0.42897 -0.91261,-1.03342 -1.35937,-1.43554 -3.53792,-3.18443 -7.41394,-6.02561 -11.17579,-8.64844 -7.55379,-5.26678 -14.863276,-9.61133 -14.863276,-9.61133 a 15.188454,15.188454 0 0 0 -0.0098,-0.006 c -2.625123,-1.56147 -5.676057,-2.40032 -8.730469,-2.40039 H 1.8867188 a 15.188454,15.188454 0 0 0 -0.00977,0 c -8.9396192,0.006 -17.0696111,8.14437 -17.0664061,17.08399 v 44.19726 a 15.188454,15.188454 0 0 0 0,0.01 c 0.0061,8.93371 8.1326893,17.06035 17.0664061,17.0664 a 15.188454,15.188454 0 0 0 0.00977,0 H 85.03125 c 3.05635,0.001 6.109528,-0.83796 8.736328,-2.40039 a 15.188454,15.188454 0 0 0 0.0078,-0.006 c 0,0 7.310609,-4.34059 14.865229,-9.60742 3.76288,-2.62333 7.63888,-5.46521 11.17579,-8.64844 a 15.188454,15.188454 0 0 0 0,-0.002 c 0.45292,-0.40767 0.90552,-1.00468 1.35937,-1.4375 h 28.2207 v 102.90234 a 15.188454,15.188454 0 0 0 0,0.01 c 0.006,8.93768 8.1408,17.06605 17.07813,17.06641 h 327.34961 c 0.089,2.80032 0.76816,5.58507 2.17578,8.00976 3.02363,5.20834 8.97243,8.57901 14.99414,8.5 0.0624,4e-5 59.08648,-0.0573 90.54492,-45.83789 h 89.47852 c 0.45215,0.42996 0.91353,1.03644 1.36133,1.43945 3.51701,3.1653 7.387,6.01835 11.16797,8.6543 7.51962,5.24251 14.71854,9.51132 14.79492,9.55664 2.614,1.57717 5.65608,2.43887 8.70898,2.45899 a 15.188454,15.188454 0 0 0 0.0996,0 H 889.9375 c 8.94353,0.003 17.08362,-8.13495 17.08398,-17.07813 v -0.006 -44.19726 -0.006 c -3.6e-4,-8.94122 -8.13691,-17.07772 -17.07812,-17.07813 h -162.78711 -0.006 c -3.05442,6e-5 -6.10534,0.83892 -8.73047,2.40039 a 15.188454,15.188454 0 0 0 -0.01,0.006 c 0,0 -7.3095,4.34455 -14.86328,9.61133 v -0.002 c -3.78041,2.63562 -7.65017,5.48993 -11.16797,8.65625 -0.44457,0.40014 -0.90443,1.00288 -1.35352,1.42969 h -90.63086 c -16.63816,-23.14805 -40.06585,-33.98602 -58.89844,-39.21876 19.05973,-5.29765 42.82673,-16.32254 59.47657,-40.01171 h 90.04492 c 0.45186,0.42965 0.91379,1.03472 1.36133,1.4375 3.52637,3.17386 7.39654,6.01914 11.16797,8.64843 3.77726,2.63336 7.43869,4.99742 10.1914,6.73047 2.75271,1.73305 4.67383,2.87696 4.67383,2.87696 l 0.008,0.006 c 2.62513,1.56148 5.67605,2.40034 8.73047,2.4004 h 162.79297 c 8.9373,-4.1e-4 17.07211,-8.12876 17.07812,-17.06641 a 15.188454,15.188454 0 0 0 0,-0.01 v -44.19726 -0.006 c -3.6e-4,-8.94122 -8.13691,-17.07772 -17.07812,-17.07813 H 727.15039 a 15.188454,15.188454 0 0 0 -0.0215,0 c -3.05653,0.004 -6.10824,0.84886 -8.73243,2.41602 -0.001,7.5e-4 -0.003,0.001 -0.004,0.002 -0.0188,0.0111 -7.30013,4.33861 -14.8457,9.59961 -3.77058,2.62891 -7.64088,5.47374 -11.16797,8.64844 -0.44678,0.40213 -0.90819,1.00657 -1.35938,1.43555 h -90.04687 c -31.63315,-45.00901 -89.92181,-45.02547 -89.97852,-45.02539 -6.02171,-0.079 -11.97051,3.29165 -14.99414,8.5 -1.2813,2.2071 -1.89531,4.72074 -2.08398,7.26367 h -35.78711 c -3.38852,-2.38592 -7.42545,-3.84527 -11.57618,-3.84571 a 15.188454,15.188454 0 0 0 -0.0254,0 c -4.14082,0.007 -8.16663,1.46518 -11.54687,3.84571 H 183.55078 v -49.96875 h 77.17188 v 2.26367 c -0.0105,11.32957 13.66821,20.22255 24.01953,15.61719 l -0.0274,0.0137 26.2793,-11.63086 c 4.58978,3.26104 10.16352,5.22913 16.18164,5.23633 a 15.188454,15.188454 0 0 0 0.0176,0 c 9.27089,-3.7e-4 17.53536,-4.54683 22.77148,-11.5 h 341.9961 c 0.13785,0.12566 0.28058,0.31775 0.41797,0.4414 3.526,3.17338 7.39635,6.01902 11.16797,8.64844 7.553,5.26566 14.86132,9.60938 14.86132,9.60938 a 15.188454,15.188454 0 0 0 0.0117,0.006 c 2.62513,1.56147 5.67605,2.40033 8.73047,2.40039 h 162.79297 c 8.96675,-3.3e-4 17.11839,-8.18728 17.07812,-17.1543 v -44.12695 a 15.188454,15.188454 0 0 0 0,-0.01 c -0.006,-8.93765 -8.14082,-17.066 -17.07812,-17.06641 H 727.15625 Z m -399.96094,34.59766 c 0.006,0 1.27019,0.25 1.89649,0.375 l -1.20117,10.64258 c -0.22889,0.0329 -0.44834,0.12872 -0.67969,0.12891 h -0.0117 c -2.7926,-6e-5 -5.57482,-2.78182 -5.57617,-5.57422 a 15.188454,15.188454 0 0 0 0,-0.002 c 8.7e-4,-2.7954 2.77228,-5.56964 5.57226,-5.57031 z m 5.27539,3.20313 c 0.026,0.13086 0.0443,0.24544 0.0274,0.17187 -0.0114,-0.0569 -0.0154,-0.11507 -0.0274,-0.17187 z m 0.40625,3.43164 c 0.002,0.11002 0.002,0.26888 0,0.23828 -0.001,-0.0794 0.002,-0.15887 0,-0.23828 z m 403.9336,2.07031 c 9.3825,0.39218 9.22971,0.38991 4.76367,0.4043 0.007,0.16552 0.007,0.33038 0.0156,0.49609 h -4.01953 c -0.27967,-0.27966 -0.51598,-0.59123 -0.75976,-0.90039 z M 88.476562,439.21094 c -0.01237,0.0117 -0.02669,0.0221 -0.02148,0.0156 0.0065,-0.006 0.015,-0.009 0.02148,-0.0156 z m 724.855468,3.91797 c 0.023,0.005 0.0493,0.003 0.0723,0.008 0.0214,0.004 0.0411,0.0151 0.0625,0.0195 z m -275.68555,63.78906 c 11.25327,3.88084 23.93583,10.61763 33.39063,22.50781 -9.45521,11.89085 -22.13899,18.62713 -33.39258,22.50781 1.68763,-7.20202 2.81846,-14.6074 2.95117,-22.21093 v -0.002 c 0.003,-0.1987 0.003,-0.39895 0,-0.59765 v -0.002 c -0.13276,-7.60118 -1.26229,-15.00424 -2.94922,-22.20312 z M 284.8418,517.24023 h 144.78711 v 17.84375 h -79.66016 c -5.23456,-6.95673 -13.49881,-11.50755 -22.77539,-11.50781 a 15.188454,15.188454 0 0 0 -0.008,0 c -6.0194,0.003 -11.60051,1.96856 -16.19727,5.23242 z m 178.9414,0 h 41.27735 c 0.77822,4.04024 1.27604,8.12863 1.36328,12.2168 -0.0416,1.87738 -0.25858,3.75186 -0.44922,5.62695 H 463.7832 Z m 261.26368,11.76758 -0.2129,0.69727 c -0.20543,-0.13837 -0.22387,-0.13825 -0.43164,-0.2793 0.31098,-0.2111 0.33884,-0.21287 0.64454,-0.41797 z m -397.85743,17.57813 c 0.0104,0 1.27344,0.2487 1.89453,0.37304 l -1.1914,10.64258 c -0.23103,0.0334 -0.45185,0.12871 -0.68555,0.12891 h -0.0137 c -2.79269,-10e-5 -5.57607,-2.78351 -5.57617,-5.57617 1e-4,-2.79655 2.7648,-5.56765 5.57226,-5.56836 z m 5.05664,1.4414 c 0.0326,0.13868 0.0625,0.28842 0.0449,0.22461 -0.0177,-0.0743 -0.0262,-0.15059 -0.0449,-0.22461 z m 0.50196,3.4375 c 0.001,0.0345 0.003,0.0918 0.002,0.0859 -0.003,-0.0841 0.005,0.0848 -0.002,-0.0859 z m 439.82226,5.94141 c -0.056,0.0143 -0.11198,0.0208 -0.084,0.01 0.0281,-0.007 0.0559,-0.003 0.084,-0.01 z m 59.4375,0.10352 c 0.0228,0.005 0.0495,0.003 0.0723,0.008 0.0212,0.004 0.0413,0.0151 0.0625,0.0195 z m -648.45703,11.72851 h 77.17188 v 2.2793 a 15.188454,15.188454 0 0 0 0,0.002 c 0.001,11.32367 13.6736,20.20257 24.01953,15.59961 l 26.25,-11.61523 c 4.58403,3.25782 10.15111,5.22612 16.16211,5.23632 0.0131,3e-5 0.026,10e-6 0.0391,0 9.27473,-4.1e-4 17.53849,-4.54749 22.77344,-11.50195 h 79.66211 v 42.54688 c 4e-4,8.93727 8.12878,17.07206 17.0664,17.07812 a 15.188454,15.188454 0 0 0 0.01,0 h 57.81836 c 1.104,4.83184 1.79086,9.77014 1.90234,14.70313 -0.0805,3.84269 -0.50067,7.69168 -1.19336,11.49609 H 183.55078 Z m 280.23242,0 h 30.83789 c -1.42254,4.54315 -1.01727,9.66348 1.37891,13.79102 0.74799,1.28845 1.6794,2.46072 2.74219,3.5 -1.05513,1.03307 -1.98201,2.19558 -2.72657,3.47461 -0.85013,1.46038 -1.39815,3.05993 -1.76953,4.70507 H 463.7832 Z m 47.21094,22.29102 c 0.11019,0.0178 -0.14709,-0.0109 0,0 z m 26.65234,29.58593 c 11.2533,3.88083 23.93577,10.61758 33.39063,22.50782 -9.45589,11.89173 -22.13851,18.62862 -33.39258,22.50781 1.68802,-7.20161 2.81844,-14.60672 2.95117,-22.21094 v -0.002 c 0.003,-0.19867 0.003,-0.39899 0,-0.59766 v -0.002 c -0.13275,-7.60125 -1.26228,-15.00423 -2.94922,-22.20313 z m 199.15821,25.81836 c 7.20399,0.45092 9.88014,0.40378 5.40625,0.40625 l -0.1543,0.50391 h -4.48633 c -0.28265,-0.28204 -0.51956,-0.59801 -0.76562,-0.91016 z m 76.52734,23.97071 c 0.0205,0.004 0.042,0.001 0.0625,0.006 0.0256,0.005 0.0466,0.0181 0.0723,0.0234 z"
       transform="matrix(0.26458333,0,0,0.26458333,32.926407,-266.65143)" />
    <g
       id="g2495">
      <path
         sodipodi:nodetypes="cssssccssssc"
         inkscape:connector-curvature="0"
         id="rect1115"
         d="M 125.91776,-194.51885 H 79.344279 c -1.345419,0 -2.428554,-1.08313 -2.428554,-2.42855 v -66.77543 c 0,-1.34541 1.083135,-2.42855 2.428554,-2.42855 h 46.570991 m 2.2626,0 h 94.29458 c 1.34541,0 2.42855,1.08314 2.42855,2.42855 v 66.77543 c 0,1.34542 -1.9036,2.42964 -3.24901,2.42855 l -93.49734,-0.0756"
         style="opacity:1;fill:none;fill-opacity:1;stroke:#000000;stroke-width:1;stroke-linecap:round;stroke-linejoin:round;stroke-miterlimit:4;stroke-dasharray:none;stroke-opacity:1" />
      <path
         sodipodi:nodetypes="cc"
         inkscape:connector-curvature="0"
         id="path1169"
         d="M 77.078032,-250.14656 H 125.72139"
         style="opacity:1;fill:none;fill-opacity:1;stroke:#000000;stroke-width:1;stroke-linecap:round;stroke-linejoin:round;stroke-miterlimit:4;stroke-dasharray:none;stroke-opacity:1" />
      <path
         sodipodi:nodetypes="cc"
         inkscape:connector-curvature="0"
         id="path1171"
         d="m 125.92687,-265.78008 v 71.18565"
         style="opacity:1;fill:none;fill-opacity:1;stroke:#000000;stroke-width:1;stroke-linecap:round;stroke-linejoin:round;stroke-miterlimit:4;stroke-dasharray:none;stroke-opacity:1" />
      <path
         sodipodi:nodetypes="cc"
         style="opacity:1;fill:none;fill-opacity:1;stroke:#000000;stroke-width:1;stroke-linecap:round;stroke-linejoin:round;stroke-miterlimit:4;stroke-dasharray:none;stroke-opacity:1"
         d="m 128.15465,-265.78008 v 71.18565"
         id="path1173"
         inkscape:connector-curvature="0" />
      <path
         style="opacity:1;fill:none;fill-opacity:1;stroke:#000000;stroke-width:1;stroke-linecap:round;stroke-linejoin:round;stroke-miterlimit:4;stroke-dasharray:none;stroke-opacity:1"
         d="m 128.70805,-250.14656 h 95.86182"
         id="path1175"
         inkscape:connector-curvature="0"
         sodipodi:nodetypes="cc" />
      <text
         id="text1179"
         y="-254.06961"
         x="84.961487"
         style="font-style:normal;font-weight:normal;font-size:10.58333302px;line-height:1.25;font-family:sans-serif;letter-spacing:0px;word-spacing:0px;fill:#000000;fill-opacity:1;stroke:none;stroke-width:0.26458332"
         xml:space="preserve"><tspan
           style="font-style:normal;font-variant:normal;font-weight:normal;font-stretch:normal;font-family:monospace;-inkscape-font-specification:monospace;stroke-width:0.26458332"
           y="-254.06961"
           x="84.961487"
           id="tspan1177"
           sodipodi:role="line">A</tspan></text>
      <text
         xml:space="preserve"
         style="font-style:normal;font-weight:normal;font-size:5.4491415px;line-height:1.25;font-family:sans-serif;letter-spacing:0px;word-spacing:0px;fill:#000000;fill-opacity:1;stroke:none;stroke-width:0.13622853"
         x="90.96199"
         y="-252.37247"
         id="text1183"><tspan
           sodipodi:role="line"
           id="tspan1181"
           x="90.96199"
           y="-252.37247"
           style="font-style:normal;font-variant:normal;font-weight:normal;font-stretch:normal;font-family:monospace;-inkscape-font-specification:monospace;stroke-width:0.13622853">15</tspan></text>
      <text
         xml:space="preserve"
         style="font-style:normal;font-weight:normal;font-size:10.58333302px;line-height:1.25;font-family:sans-serif;letter-spacing:0px;word-spacing:0px;fill:#000000;fill-opacity:1;stroke:none;stroke-width:0.26458332"
         x="109.13645"
         y="-254.03098"
         id="text1187"><tspan
           sodipodi:role="line"
           id="tspan1185"
           x="109.13645"
           y="-254.03098"
           style="font-style:normal;font-variant:normal;font-weight:normal;font-stretch:normal;font-family:monospace;-inkscape-font-specification:monospace;stroke-width:0.26458332">A</tspan></text>
      <text
         id="text1191"
         y="-252.33383"
         x="115.13696"
         style="font-style:normal;font-weight:normal;font-size:5.4491415px;line-height:1.25;font-family:sans-serif;letter-spacing:0px;word-spacing:0px;fill:#000000;fill-opacity:1;stroke:none;stroke-width:0.13622853"
         xml:space="preserve"><tspan
           style="font-style:normal;font-variant:normal;font-weight:normal;font-stretch:normal;font-family:monospace;-inkscape-font-specification:monospace;stroke-width:0.13622853"
           y="-252.33383"
           x="115.13696"
           id="tspan1189"
           sodipodi:role="line">14</tspan></text>
      <text
         id="text1213"
         y="-253.18242"
         x="132.93925"
         style="font-style:normal;font-weight:normal;font-size:10.58333302px;line-height:1.25;font-family:sans-serif;letter-spacing:0px;word-spacing:0px;fill:#000000;fill-opacity:1;stroke:none;stroke-width:0.26458332"
         xml:space="preserve"><tspan
           style="font-style:normal;font-variant:normal;font-weight:normal;font-stretch:normal;font-family:monospace;-inkscape-font-specification:monospace;stroke-width:0.26458332"
           y="-253.18242"
           x="132.93925"
           id="tspan1211"
           sodipodi:role="line">RAM</tspan></text>
      <text
         xml:space="preserve"
         style="font-style:normal;font-weight:normal;font-size:10.58333302px;line-height:1.25;font-family:sans-serif;letter-spacing:0px;word-spacing:0px;fill:#000000;fill-opacity:1;stroke:none;stroke-width:0.26458332"
         x="163.64143"
         y="-253.18758"
         id="text1217"><tspan
           sodipodi:role="line"
           id="tspan1215"
           x="163.64143"
           y="-253.18758"
           style="font-style:normal;font-variant:normal;font-weight:normal;font-stretch:normal;font-family:monospace;-inkscape-font-specification:monospace;stroke-width:0.26458332">ACIA</tspan></text>
      <text
         id="text1221"
         y="-253.18758"
         x="200.42593"
         style="font-style:normal;font-weight:normal;font-size:10.58333302px;line-height:1.25;font-family:sans-serif;letter-spacing:0px;word-spacing:0px;fill:#000000;fill-opacity:1;stroke:none;stroke-width:0.26458332"
         xml:space="preserve"><tspan
           style="font-style:normal;font-variant:normal;font-weight:normal;font-stretch:normal;font-family:monospace;-inkscape-font-specification:monospace;stroke-width:0.26458332"
           y="-253.18758"
           x="200.42593"
           id="tspan1219"
           sodipodi:role="line">ROM</tspan></text>
      <text
         xml:space="preserve"
         style="font-style:normal;font-weight:normal;font-size:10.58333302px;line-height:1.25;font-family:sans-serif;letter-spacing:0px;word-spacing:0px;fill:#000000;fill-opacity:1;stroke:none;stroke-width:0.26458332"
         x="84.590195"
         y="-239.46037"
         id="text1251"><tspan
           sodipodi:role="line"
           id="tspan1249"
           x="84.590195"
           y="-239.46037"
           style="font-style:normal;font-variant:normal;font-weight:normal;font-stretch:normal;font-family:monospace;-inkscape-font-specification:monospace;stroke-width:0.26458332">0</tspan></text>
      <text
         id="text1265"
         y="-226.47557"
         x="84.590195"
         style="font-style:normal;font-weight:normal;font-size:10.58333302px;line-height:1.25;font-family:sans-serif;letter-spacing:0px;word-spacing:0px;fill:#000000;fill-opacity:1;stroke:none;stroke-width:0.26458332"
         xml:space="preserve"><tspan
           style="font-style:normal;font-variant:normal;font-weight:normal;font-stretch:normal;font-family:monospace;-inkscape-font-specification:monospace;stroke-width:0.26458332"
           y="-226.47557"
           x="84.590195"
           id="tspan1263"
           sodipodi:role="line">0</tspan></text>
      <text
         xml:space="preserve"
         style="font-style:normal;font-weight:normal;font-size:10.58333302px;line-height:1.25;font-family:sans-serif;letter-spacing:0px;word-spacing:0px;fill:#000000;fill-opacity:1;stroke:none;stroke-width:0.26458332"
         x="84.590195"
         y="-213.49077"
         id="text1269"><tspan
           sodipodi:role="line"
           id="tspan1267"
           x="84.590195"
           y="-213.49077"
           style="font-style:normal;font-variant:normal;font-weight:normal;font-stretch:normal;font-family:monospace;-inkscape-font-specification:monospace;stroke-width:0.26458332">1</tspan></text>
      <text
         id="text1273"
         y="-200.50597"
         x="84.590195"
         style="font-style:normal;font-weight:normal;font-size:10.58333302px;line-height:1.25;font-family:sans-serif;letter-spacing:0px;word-spacing:0px;fill:#000000;fill-opacity:1;stroke:none;stroke-width:0.26458332"
         xml:space="preserve"><tspan
           style="font-style:normal;font-variant:normal;font-weight:normal;font-stretch:normal;font-family:monospace;-inkscape-font-specification:monospace;stroke-width:0.26458332"
           y="-200.50597"
           x="84.590195"
           id="tspan1271"
           sodipodi:role="line">1</tspan></text>
      <text
         id="text1287"
         y="-239.46037"
         x="109.007"
         style="font-style:normal;font-weight:normal;font-size:10.58333302px;line-height:1.25;font-family:sans-serif;letter-spacing:0px;word-spacing:0px;fill:#000000;fill-opacity:1;stroke:none;stroke-width:0.26458332"
         xml:space="preserve"><tspan
           style="font-style:normal;font-variant:normal;font-weight:normal;font-stretch:normal;font-family:monospace;-inkscape-font-specification:monospace;stroke-width:0.26458332"
           y="-239.46037"
           x="109.007"
           id="tspan1285"
           sodipodi:role="line">0</tspan></text>
      <text
         xml:space="preserve"
         style="font-style:normal;font-weight:normal;font-size:10.58333302px;line-height:1.25;font-family:sans-serif;letter-spacing:0px;word-spacing:0px;fill:#000000;fill-opacity:1;stroke:none;stroke-width:0.26458332"
         x="109.007"
         y="-226.47557"
         id="text1291"><tspan
           sodipodi:role="line"
           id="tspan1289"
           x="109.007"
           y="-226.47557"
           style="font-style:normal;font-variant:normal;font-weight:normal;font-stretch:normal;font-family:monospace;-inkscape-font-specification:monospace;stroke-width:0.26458332">1</tspan></text>
      <text
         id="text1295"
         y="-213.49077"
         x="109.007"
         style="font-style:normal;font-weight:normal;font-size:10.58333302px;line-height:1.25;font-family:sans-serif;letter-spacing:0px;word-spacing:0px;fill:#000000;fill-opacity:1;stroke:none;stroke-width:0.26458332"
         xml:space="preserve"><tspan
           style="font-style:normal;font-variant:normal;font-weight:normal;font-stretch:normal;font-family:monospace;-inkscape-font-specification:monospace;stroke-width:0.26458332"
           y="-213.49077"
           x="109.007"
           id="tspan1293"
           sodipodi:role="line">0</tspan></text>
      <text
         xml:space="preserve"
         style="font-style:normal;font-weight:normal;font-size:10.58333302px;line-height:1.25;font-family:sans-serif;letter-spacing:0px;word-spacing:0px;fill:#000000;fill-opacity:1;stroke:none;stroke-width:0.26458332"
         x="109.007"
         y="-200.50597"
         id="text1299"><tspan
           sodipodi:role="line"
           id="tspan1297"
           x="109.007"
           y="-200.50597"
           style="font-style:normal;font-variant:normal;font-weight:normal;font-stretch:normal;font-family:monospace;-inkscape-font-specification:monospace;stroke-width:0.26458332">1</tspan></text>
      <text
         xml:space="preserve"
         style="font-style:normal;font-weight:normal;font-size:10.58333302px;line-height:1.25;font-family:sans-serif;letter-spacing:0px;word-spacing:0px;fill:#000000;fill-opacity:1;stroke:#333333;stroke-width:0.5"
         x="138.4122"
         y="-239.46037"
         id="text1305"><tspan
           sodipodi:role="line"
           id="tspan1303"
           x="138.4122"
           y="-239.46037"
           style="font-style:normal;font-variant:normal;font-weight:normal;font-stretch:normal;font-family:monospace;-inkscape-font-specification:monospace;stroke:#333333;stroke-width:0.5">0</tspan></text>
      <text
         id="text1309"
         y="-226.47557"
         x="138.4122"
         style="font-style:normal;font-weight:normal;font-size:10.58333302px;line-height:1.25;font-family:sans-serif;letter-spacing:0px;word-spacing:0px;fill:#000000;fill-opacity:1;stroke:none;stroke-width:0.26458332"
         xml:space="preserve"><tspan
           style="font-style:normal;font-variant:normal;font-weight:normal;font-stretch:normal;font-family:monospace;-inkscape-font-specification:monospace;stroke-width:0.26458332"
           y="-226.47557"
           x="138.4122"
           id="tspan1307"
           sodipodi:role="line">1</tspan></text>
      <text
         xml:space="preserve"
         style="font-style:normal;font-weight:normal;font-size:10.58333302px;line-height:1.25;font-family:sans-serif;letter-spacing:0px;word-spacing:0px;fill:#000000;fill-opacity:1;stroke:none;stroke-width:0.26458332"
         x="138.4122"
         y="-213.49077"
         id="text1313"><tspan
           sodipodi:role="line"
           id="tspan1311"
           x="138.4122"
           y="-213.49077"
           style="font-style:normal;font-variant:normal;font-weight:normal;font-stretch:normal;font-family:monospace;-inkscape-font-specification:monospace;stroke-width:0.26458332">1</tspan></text>
      <text
         id="text1317"
         y="-200.50597"
         x="138.4122"
         style="font-style:normal;font-weight:normal;font-size:10.58333302px;line-height:1.25;font-family:sans-serif;letter-spacing:0px;word-spacing:0px;fill:#000000;fill-opacity:1;stroke:none;stroke-width:0.26458332"
         xml:space="preserve"><tspan
           style="font-style:normal;font-variant:normal;font-weight:normal;font-stretch:normal;font-family:monospace;-inkscape-font-specification:monospace;stroke-width:0.26458332"
           y="-200.50597"
           x="138.4122"
           id="tspan1315"
           sodipodi:role="line">1</tspan></text>
      <text
         id="text1341"
         y="-239.46037"
         x="171.49303"
         style="font-style:normal;font-weight:normal;font-size:10.58333302px;line-height:1.25;font-family:sans-serif;letter-spacing:0px;word-spacing:0px;fill:#000000;fill-opacity:1;stroke:none;stroke-width:0.26458332"
         xml:space="preserve"><tspan
           style="font-style:normal;font-variant:normal;font-weight:normal;font-stretch:normal;font-family:monospace;-inkscape-font-specification:monospace;stroke-width:0.26458332"
           y="-239.46037"
           x="171.49303"
           id="tspan1339"
           sodipodi:role="line">1</tspan></text>
      <text
         xml:space="preserve"
         style="font-style:normal;font-weight:normal;font-size:10.58333302px;line-height:1.25;font-family:sans-serif;letter-spacing:0px;word-spacing:0px;fill:#000000;fill-opacity:1;stroke:#000000;stroke-width:0.5"
         x="171.49303"
         y="-226.47557"
         id="text1345"><tspan
           sodipodi:role="line"
           id="tspan1343"
           x="171.49303"
           y="-226.47557"
           style="font-style:normal;font-variant:normal;font-weight:normal;font-stretch:normal;font-family:monospace;-inkscape-font-specification:monospace;stroke:#000000;stroke-width:0.5">0</tspan></text>
      <text
         id="text1349"
         y="-213.49077"
         x="171.49303"
         style="font-style:normal;font-weight:normal;font-size:10.58333302px;line-height:1.25;font-family:sans-serif;letter-spacing:0px;word-spacing:0px;fill:#000000;fill-opacity:1;stroke:none;stroke-width:0.26458332"
         xml:space="preserve"><tspan
           style="font-style:normal;font-variant:normal;font-weight:normal;font-stretch:normal;font-family:monospace;-inkscape-font-specification:monospace;stroke-width:0.26458332"
           y="-213.49077"
           x="171.49303"
           id="tspan1347"
           sodipodi:role="line">1</tspan></text>
      <text
         xml:space="preserve"
         style="font-style:normal;font-weight:normal;font-size:10.58333302px;line-height:1.25;font-family:sans-serif;letter-spacing:0px;word-spacing:0px;fill:#000000;fill-opacity:1;stroke:none;stroke-width:0.26458332"
         x="171.49303"
         y="-200.50597"
         id="text1353"><tspan
           sodipodi:role="line"
           id="tspan1351"
           x="171.49303"
           y="-200.50597"
           style="font-style:normal;font-variant:normal;font-weight:normal;font-stretch:normal;font-family:monospace;-inkscape-font-specification:monospace;stroke-width:0.26458332">1</tspan></text>
      <text
         xml:space="preserve"
         style="font-style:normal;font-weight:normal;font-size:10.58333302px;line-height:1.25;font-family:sans-serif;letter-spacing:0px;word-spacing:0px;fill:#000000;fill-opacity:1;stroke:none;stroke-width:0.26458332"
         x="207.72443"
         y="-239.46037"
         id="text1359"><tspan
           sodipodi:role="line"
           id="tspan1357"
           x="207.72443"
           y="-239.46037"
           style="font-style:normal;font-variant:normal;font-weight:normal;font-stretch:normal;font-family:monospace;-inkscape-font-specification:monospace;stroke-width:0.26458332">1</tspan></text>
      <text
         id="text1363"
         y="-226.47557"
         x="207.72443"
         style="font-style:normal;font-weight:normal;font-size:10.58333302px;line-height:1.25;font-family:sans-serif;letter-spacing:0px;word-spacing:0px;fill:#000000;fill-opacity:1;stroke:none;stroke-width:0.26458332"
         xml:space="preserve"><tspan
           style="font-style:normal;font-variant:normal;font-weight:normal;font-stretch:normal;font-family:monospace;-inkscape-font-specification:monospace;stroke-width:0.26458332"
           y="-226.47557"
           x="207.72443"
           id="tspan1361"
           sodipodi:role="line">1</tspan></text>
      <text
         xml:space="preserve"
         style="font-style:normal;font-weight:normal;font-size:10.58333302px;line-height:1.25;font-family:sans-serif;letter-spacing:0px;word-spacing:0px;fill:#000000;fill-opacity:1;stroke:#000000;stroke-width:0.26458332"
         x="207.72443"
         y="-213.49077"
         id="text1367"><tspan
           sodipodi:role="line"
           id="tspan1365"
           x="207.72443"
           y="-213.49077"
           style="font-style:normal;font-variant:normal;font-weight:normal;font-stretch:normal;font-family:monospace;-inkscape-font-specification:monospace;stroke:#000000;stroke-width:0.26458332">0</tspan></text>
      <text
         id="text1371"
         y="-200.50597"
         x="207.72443"
         style="font-style:normal;font-weight:normal;font-size:10.58333302px;line-height:1.25;font-family:sans-serif;letter-spacing:0px;word-spacing:0px;fill:#000000;fill-opacity:1;stroke:#000000;stroke-width:0.26458332"
         xml:space="preserve"><tspan
           style="font-style:normal;font-variant:normal;font-weight:normal;font-stretch:normal;font-family:monospace;-inkscape-font-specification:monospace;stroke:#000000;stroke-width:0.26458332"
           y="-200.50597"
           x="207.72443"
           id="tspan1369"
           sodipodi:role="line">0</tspan></text>
      <path
         sodipodi:nodetypes="cc"
         inkscape:connector-curvature="0"
         id="path10"
         d="M 63.374245,-156.57582 H 217.6645"
         style="fill:none;stroke:#000000;stroke-width:1;stroke-linecap:round;stroke-linejoin:round;stroke-opacity:1" />
      <path
         inkscape:connector-curvature="0"
         id="path871"
         d="m 76.972335,-156.76595 v 22.44771 h 93.072675"
         style="opacity:1;fill:none;fill-opacity:1;stroke:#000000;stroke-width:1;stroke-linecap:round;stroke-linejoin:round;stroke-miterlimit:4;stroke-dasharray:none;stroke-opacity:1"
         sodipodi:nodetypes="ccc" />
      <circle
         r="1.3783684"
         cy="-156.5107"
         cx="76.972336"
         id="path873"
         style="opacity:1;fill:#000000;fill-opacity:1;stroke:none;stroke-width:1;stroke-linecap:round;stroke-linejoin:round;stroke-miterlimit:4;stroke-dasharray:none;stroke-opacity:1" />
      <path
         style="fill:none;stroke:#000000;stroke-width:1;stroke-linecap:round;stroke-linejoin:round;stroke-opacity:1"
         d="M 63.374245,-120.56007 H 169.9938"
         id="path883"
         inkscape:connector-curvature="0"
         sodipodi:nodetypes="cc" />
      <path
         sodipodi:nodetypes="cccc"
         inkscape:connector-curvature="0"
         id="rect16"
         d="m 106.42866,-161.69835 11.57312,5.12253 -11.57312,5.12253 z"
         style="opacity:1;fill:#ffffff;fill-opacity:1;stroke:#000000;stroke-width:1;stroke-linecap:round;stroke-linejoin:round;stroke-miterlimit:4;stroke-dasharray:none;stroke-opacity:1" />
      <circle
         r="3.0438542"
         cy="-156.57582"
         cx="119.49585"
         id="path23"
         style="opacity:1;fill:#ffffff;fill-opacity:1;stroke:#000000;stroke-width:1;stroke-linecap:round;stroke-linejoin:round;stroke-miterlimit:4;stroke-dasharray:none;stroke-opacity:1" />
      <path
         style="opacity:1;fill:#ffffff;fill-opacity:1;stroke:#000000;stroke-width:1;stroke-linecap:round;stroke-linejoin:round;stroke-miterlimit:4;stroke-dasharray:none;stroke-opacity:1"
         d="m 106.42866,-125.6826 11.57312,5.12253 -11.57312,5.12253 z"
         id="path885"
         inkscape:connector-curvature="0"
         sodipodi:nodetypes="cccc" />
      <circle
         style="opacity:1;fill:#ffffff;fill-opacity:1;stroke:#000000;stroke-width:1;stroke-linecap:round;stroke-linejoin:round;stroke-miterlimit:4;stroke-dasharray:none;stroke-opacity:1"
         id="circle887"
         cx="119.49585"
         cy="-120.56007"
         r="3.0438542" />
      <path
         sodipodi:nodetypes="ccc"
         style="opacity:1;fill:none;fill-opacity:1;stroke:#000000;stroke-width:1;stroke-linecap:round;stroke-linejoin:round;stroke-miterlimit:4;stroke-dasharray:none;stroke-opacity:1"
         d="m 76.972335,-120.37889 v 31.562815 h 93.434915"
         id="path891"
         inkscape:connector-curvature="0" />
      <circle
         style="opacity:1;fill:#000000;fill-opacity:1;stroke:none;stroke-width:1;stroke-linecap:round;stroke-linejoin:round;stroke-miterlimit:4;stroke-dasharray:none;stroke-opacity:1"
         id="circle893"
         cx="76.972336"
         cy="-120.49493"
         r="1.3783684" />
      <path
         inkscape:connector-curvature="0"
         id="rect37"
         d="m 168.06774,-138.48955 c 2.05035,3.48001 3.30029,7.65855 3.37458,11.91399 -0.0742,4.25564 -1.32412,8.43474 -3.37458,11.91491 0,0 14.95395,-0.20335 21.3974,-11.91491 -6.44345,-11.71157 -21.3974,-11.91399 -21.3974,-11.91399 z"
         style="opacity:1;fill:#ffffff;fill-opacity:1;stroke:#000000;stroke-width:1;stroke-linecap:round;stroke-linejoin:round;stroke-miterlimit:4;stroke-dasharray:none;stroke-opacity:1" />
      <path
         style="opacity:1;fill:#ffffff;fill-opacity:1;stroke:#000000;stroke-width:1;stroke-linecap:round;stroke-linejoin:round;stroke-miterlimit:4;stroke-dasharray:none;stroke-opacity:1"
         d="m 168.06774,-108.27483 c 2.05035,3.48 3.30029,7.65855 3.37458,11.913986 -0.0742,4.25564 -1.32412,8.43474 -3.37458,11.91491 0,0 14.95395,-0.20335 21.3974,-11.91491 -6.44345,-11.711566 -21.3974,-11.913986 -21.3974,-11.913986 z"
         id="path897"
         inkscape:connector-curvature="0" />
      <path
         sodipodi:nodetypes="ccc"
         inkscape:connector-curvature="0"
         id="path921"
         d="m 151.1177,-134.44576 v 29.66166 h 18.19353"
         style="opacity:1;fill:none;fill-opacity:1;stroke:#000000;stroke-width:1;stroke-linecap:round;stroke-linejoin:round;stroke-miterlimit:4;stroke-dasharray:none;stroke-opacity:1" />
      <path
         inkscape:connector-curvature="0"
         id="path923"
         d="M 189.07467,-96.574375 H 217.6645"
         style="opacity:1;fill:none;fill-opacity:1;stroke:#000000;stroke-width:1;stroke-linecap:round;stroke-linejoin:round;stroke-miterlimit:4;stroke-dasharray:none;stroke-opacity:1" />
      <path
         style="opacity:1;fill:none;fill-opacity:1;stroke:#000000;stroke-width:1;stroke-linecap:round;stroke-linejoin:round;stroke-miterlimit:4;stroke-dasharray:none;stroke-opacity:1"
         d="M 189.07467,-126.5751 H 217.6645"
         id="path925"
         inkscape:connector-curvature="0" />
      <text
         id="text929"
         y="-152.79311"
         x="36.038906"
         style="font-style:normal;font-variant:normal;font-weight:normal;font-stretch:normal;font-size:10.58333302px;line-height:1.25;font-family:monospace;-inkscape-font-specification:monospace;letter-spacing:0px;word-spacing:0px;fill:#000000;fill-opacity:1;stroke:none;stroke-width:0.26458332"
         xml:space="preserve"><tspan
           style="font-style:normal;font-variant:normal;font-weight:normal;font-stretch:normal;font-family:monospace;-inkscape-font-specification:monospace;stroke-width:0.26458332"
           y="-152.79311"
           x="36.038906"
           id="tspan927"
           sodipodi:role="line">A15</tspan></text>
      <text
         id="text933"
         y="-116.7076"
         x="35.909714"
         style="font-style:normal;font-variant:normal;font-weight:normal;font-stretch:normal;font-size:10.58333302px;line-height:1.25;font-family:monospace;-inkscape-font-specification:monospace;letter-spacing:0px;word-spacing:0px;fill:#000000;fill-opacity:1;stroke:none;stroke-width:0.26458332"
         xml:space="preserve"><tspan
           style="font-style:normal;font-variant:normal;font-weight:normal;font-stretch:normal;font-family:monospace;-inkscape-font-specification:monospace;stroke-width:0.26458332"
           y="-116.7076"
           x="35.909714"
           id="tspan931"
           sodipodi:role="line">A14</tspan></text>
      <path
         sodipodi:nodetypes="cccscc"
         inkscape:connector-curvature="0"
         id="rect964"
         d="m 33.426407,-162.42378 v 11.69592 h 22.000208 c 0,0 7.32255,-4.36233 7.32255,-5.8477 0,-1.48537 -7.32255,-5.84822 -7.32255,-5.84822 z"
         style="opacity:1;fill:none;fill-opacity:1;stroke:#000000;stroke-width:1;stroke-linecap:round;stroke-linejoin:round;stroke-miterlimit:4;stroke-dasharray:none;stroke-opacity:1" />
      <path
         sodipodi:nodetypes="cccscc"
         style="opacity:1;fill:none;fill-opacity:1;stroke:#000000;stroke-width:1;stroke-linecap:round;stroke-linejoin:round;stroke-miterlimit:4;stroke-dasharray:none;stroke-opacity:1"
         d="m 33.426407,-126.40803 v 11.69592 h 22.000208 c 0,0 7.32255,-4.36233 7.32255,-5.8477 0,-1.48537 -7.32255,-5.84822 -7.32255,-5.84822 z"
         id="path973"
         inkscape:connector-curvature="0" />
      <path
         style="opacity:1;fill:none;fill-opacity:1;stroke:#000000;stroke-width:1;stroke-linecap:round;stroke-linejoin:round;stroke-miterlimit:4;stroke-dasharray:none;stroke-opacity:1"
         d="m 268.39032,-162.68633 v 11.69592 h -43.0713 c 0,0 -7.32255,-4.36233 -7.32255,-5.8477 0,-1.48537 7.32255,-5.84822 7.32255,-5.84822 z"
         id="path991"
         inkscape:connector-curvature="0"
         sodipodi:nodetypes="cccscc" />
      <text
         xml:space="preserve"
         style="font-style:normal;font-variant:normal;font-weight:normal;font-stretch:normal;font-size:8.21508217px;line-height:1.25;font-family:monospace;-inkscape-font-specification:monospace;letter-spacing:0px;word-spacing:0px;fill:#000000;fill-opacity:1;stroke:none;stroke-width:0.20537704"
         x="227.71689"
         y="-153.35736"
         id="text985"><tspan
           sodipodi:role="line"
           id="tspan983"
           x="227.71689"
           y="-153.35736"
           style="font-style:normal;font-variant:normal;font-weight:normal;font-stretch:normal;font-family:monospace;-inkscape-font-specification:monospace;stroke-width:0.20537704">ROM SEL</tspan></text>
      <path
         sodipodi:nodetypes="cc"
         style="opacity:1;fill:none;fill-opacity:1;stroke:#000000;stroke-width:0.77622825;stroke-linecap:round;stroke-linejoin:round;stroke-miterlimit:4;stroke-dasharray:none;stroke-opacity:1"
         d="m 228.70714,-160.04755 h 33.10481"
         id="path1013"
         inkscape:connector-curvature="0" />
      <path
         sodipodi:nodetypes="cccscc"
         inkscape:connector-curvature="0"
         id="path1046"
         d="m 268.39032,-132.42306 v 11.69592 h -43.0713 c 0,0 -7.32255,-4.36233 -7.32255,-5.8477 0,-1.48537 7.32255,-5.84822 7.32255,-5.84822 z"
         style="opacity:1;fill:none;fill-opacity:1;stroke:#000000;stroke-width:1;stroke-linecap:round;stroke-linejoin:round;stroke-miterlimit:4;stroke-dasharray:none;stroke-opacity:1" />
      <text
         id="text1050"
         y="-123.0941"
         x="227.71689"
         style="font-style:normal;font-variant:normal;font-weight:normal;font-stretch:normal;font-size:8.21508217px;line-height:1.25;font-family:monospace;-inkscape-font-specification:monospace;letter-spacing:0px;word-spacing:0px;fill:#000000;fill-opacity:1;stroke:none;stroke-width:0.20537704"
         xml:space="preserve"><tspan
           style="font-style:normal;font-variant:normal;font-weight:normal;font-stretch:normal;font-family:monospace;-inkscape-font-specification:monospace;stroke-width:0.20537704"
           y="-123.0941"
           x="227.71689"
           id="tspan1048"
           sodipodi:role="line">ACIA SEL</tspan></text>
      <path
         inkscape:connector-curvature="0"
         id="path1052"
         d="m 228.70714,-129.78428 h 36.40007"
         style="opacity:1;fill:none;fill-opacity:1;stroke:#000000;stroke-width:0.77622825;stroke-linecap:round;stroke-linejoin:round;stroke-miterlimit:4;stroke-dasharray:none;stroke-opacity:1"
         sodipodi:nodetypes="cc" />
      <path
         style="opacity:1;fill:none;fill-opacity:1;stroke:#000000;stroke-width:1;stroke-linecap:round;stroke-linejoin:round;stroke-miterlimit:4;stroke-dasharray:none;stroke-opacity:1"
         d="m 268.39032,-102.42234 v 11.695925 h -43.0713 c 0,0 -7.32255,-4.36233 -7.32255,-5.8477 0,-1.48537 7.32255,-5.848225 7.32255,-5.848225 z"
         id="path1058"
         inkscape:connector-curvature="0"
         sodipodi:nodetypes="cccscc" />
      <text
         xml:space="preserve"
         style="font-style:normal;font-variant:normal;font-weight:normal;font-stretch:normal;font-size:8.21508217px;line-height:1.25;font-family:monospace;-inkscape-font-specification:monospace;letter-spacing:0px;word-spacing:0px;fill:#000000;fill-opacity:1;stroke:none;stroke-width:0.20537704"
         x="227.71689"
         y="-93.093376"
         id="text1062"><tspan
           sodipodi:role="line"
           id="tspan1060"
           x="227.71689"
           y="-93.093376"
           style="font-style:normal;font-variant:normal;font-weight:normal;font-stretch:normal;font-family:monospace;-inkscape-font-specification:monospace;stroke-width:0.20537704">RAM SEL</tspan></text>
      <path
         style="opacity:1;fill:none;fill-opacity:1;stroke:#000000;stroke-width:0.77622825;stroke-linecap:round;stroke-linejoin:round;stroke-miterlimit:4;stroke-dasharray:none;stroke-opacity:1"
         d="M 228.70714,-99.783552 H 261.9976"
         id="path1064"
         inkscape:connector-curvature="0"
         sodipodi:nodetypes="cc" />
      <circle
         style="opacity:1;fill:#000000;fill-opacity:1;stroke:none;stroke-width:1;stroke-linecap:round;stroke-linejoin:round;stroke-miterlimit:4;stroke-dasharray:none;stroke-opacity:1"
         id="circle1375"
         cx="151.07603"
         cy="-134.4568"
         r="1.3783684" />
    </g>
  </g>
</svg>
